<?xml version="1.0" encoding="utf-8"?>
<!-- Generator: Adobe Illustrator 17.0.0, SVG Export Plug-In . SVG Version: 6.00 Build 0)  -->
<!DOCTYPE svg PUBLIC "-//W3C//DTD SVG 1.1//EN" "http://www.w3.org/Graphics/SVG/1.1/DTD/svg11.dtd">
<svg version="1.1" id="Capa_1" xmlns="http://www.w3.org/2000/svg" xmlns:xlink="http://www.w3.org/1999/xlink" x="0px" y="0px"
	 width="445.278px" height="480.796px" viewBox="0 0 445.278 480.796" enable-background="new 0 0 445.278 480.796"
	 xml:space="preserve">
<g>
	<g>
		<path fill="none" stroke="#000000" stroke-width="2" stroke-miterlimit="10" stroke-dasharray="6,6" d="M331.227,242.941H107.481
			c-14.539,0-26.322,15.019-26.322,33.547v1.524c0,18.526,11.783,33.544,26.322,33.544h162.725"/>
		<path fill="none" stroke="#000000" stroke-width="2" stroke-miterlimit="10" stroke-dasharray="6,6" d="M284.748,311.557
			c-15.936-0.053-31.978-0.089-48.074-0.109c-35.828-0.044-71.917-0.008-107.655,0.109"/>
	</g>
	<g>
		<rect x="344.632" y="345.697" width="39.275" height="1.943"/>
		<rect x="394.954" y="345.697" width="39.279" height="1.943"/>
		<rect x="441.597" y="345.697" width="3.682" height="1.943"/>
	</g>
	<g>
		<rect x="79.457" y="194.951" width="98.426" height="2.426"/>
		<rect x="79.457" y="187.181" width="64.752" height="2.428"/>
	</g>
	<g>
		<rect x="342.584" y="474.056" width="98.426" height="2.426"/>
		<rect x="342.584" y="466.287" width="64.752" height="2.428"/>
	</g>
	<g>
		<polygon fill="#EB7423" points="399.7,151.626 374.916,151.626 374.916,175.2 380.971,175.2 379.602,183.225 385.69,175.2 
			399.7,175.2 		"/>
		<g>
			<path d="M386.088,166.93c-0.34,0-0.662-0.141-0.896-0.387l-2.03-2.125c-0.471-0.496-0.451-1.277,0.042-1.75
				c0.497-0.471,1.276-0.453,1.747,0.041l1.064,1.119l3.59-4.377c0.432-0.529,1.213-0.605,1.739-0.174
				c0.53,0.436,0.604,1.213,0.171,1.74l-4.473,5.457c-0.225,0.275-0.557,0.438-0.908,0.447
				C386.12,166.93,386.104,166.93,386.088,166.93L386.088,166.93z"/>
		</g>
	</g>
	<path fill="#FFFFFF" stroke="#000000" stroke-width="2" stroke-miterlimit="10" d="M53.024,66.736
		c-0.642-1.676-0.993-3.492-0.993-5.391c0-8.367,6.782-15.148,15.152-15.148c6.785,0,12.529,4.463,14.452,10.621
		c1.794-2.527,4.739-4.176,8.071-4.176c5.465,0,9.891,4.428,9.891,9.889c0,1.428-0.305,2.785-0.85,4.012h5.529
		c3.734,0,6.761,3.023,6.761,6.76c0,3.729-3.026,6.758-6.761,6.758H54.635c-3.731,0-6.758-3.029-6.758-6.758
		C47.877,70.127,50.07,67.459,53.024,66.736z"/>
</g>
</svg>
