<?xml version="1.0" encoding="utf-8"?>
<!-- Generator: Adobe Illustrator 22.1.0, SVG Export Plug-In . SVG Version: 6.00 Build 0)  -->
<svg version="1.1" id="Capa_1" xmlns="http://www.w3.org/2000/svg" xmlns:xlink="http://www.w3.org/1999/xlink" x="0px" y="0px"
	 viewBox="0 0 292.1 203.4" style="enable-background:new 0 0 292.1 203.4;" xml:space="preserve">
<style type="text/css">
	.st0{fill:#ED7522;}
	.st1{fill:none;stroke:#FFFFFF;stroke-width:0.115;stroke-miterlimit:10;}
	.st2{fill:#FFFFFF;}
	.st3{fill:none;stroke:#000000;stroke-width:1.714;stroke-miterlimit:10;}
</style>
<g>
	<g>
		<path d="M142.8,35.2c-4.8,0-9.2,2.1-12.2,5.9c-5.3,6.7-4.2,16.5,2.5,21.9c2.8,2.2,6.1,3.4,9.7,3.4c4.8,0,9.2-2.1,12.2-5.9
			c5.3-6.7,4.2-16.5-2.5-21.9C149.6,36.4,146.3,35.2,142.8,35.2"/>
		<path class="st0" d="M142.7,101.6c-11.4,0-22.6-3.9-31.6-11C89.2,73.1,85.6,41.1,103,19.2C112.7,7,127.2,0,142.8,0
			c11.4,0,22.6,3.9,31.6,11c10.6,8.4,17.3,20.5,18.9,34c0.7,6.4,0.3,12.8-1.4,19c-1,3.8-2.5,7.6-4.4,11.1c-0.9,1.6-2.9,2.2-4.5,1.3
			c-1.6-0.9-2.2-2.9-1.3-4.5c1.7-3,3-6.3,3.8-9.6c1.4-5.3,1.8-10.9,1.2-16.5c-1.3-11.7-7.2-22.2-16.4-29.5
			c-7.8-6.2-17.5-9.6-27.4-9.6c-13.5,0-26.1,6.1-34.6,16.7c-15.1,19-12,46.9,7.1,62c7.8,6.2,17.5,9.6,27.4,9.6
			c1.8,0,3.3,1.5,3.3,3.3C146.1,100.1,144.6,101.6,142.7,101.6"/>
		<path class="st0" d="M142.7,86.6c-8,0-15.9-2.8-22.3-7.8c-15.4-12.3-18-34.8-5.8-50.3c6.8-8.6,17-13.5,28-13.5
			c8,0,16,2.8,22.3,7.8c7.5,5.9,12.2,14.5,13.3,24c0.5,4.7,0.2,9.5-1.2,14c-0.5,1.8-2.4,2.8-4.1,2.3c-1.8-0.5-2.8-2.4-2.3-4.1
			c1.1-3.7,1.4-7.5,0.9-11.4c-0.9-7.7-4.7-14.6-10.8-19.5c-5.1-4.1-11.6-6.3-18.1-6.3c-8.9,0-17.3,4-22.8,11
			c-10,12.6-7.9,30.9,4.7,40.9c5.1,4.1,11.6,6.3,18.1,6.3c1.8,0,3.3,1.5,3.3,3.3C146.1,85.1,144.6,86.6,142.7,86.6"/>
		<path class="st1" d="M160.2,50.8c0,9.6-7.8,17.5-17.5,17.5c-9.6,0-17.5-7.8-17.5-17.5s7.8-17.5,17.5-17.5
			C152.4,33.3,160.2,41.2,160.2,50.8z"/>
		<path class="st0" d="M142.7,71.6c-4.7,0-9.3-1.6-12.9-4.5c-9-7.1-10.5-20.2-3.3-29.2c4-5,9.9-7.9,16.3-7.9c4.7,0,9.3,1.6,12.9,4.5
			c9,7.1,10.5,20.2,3.3,29.2C155.1,68.7,149.1,71.6,142.7,71.6 M142.8,36.7c-4.3,0-8.4,1.9-11.1,5.3c-4.8,6.1-3.8,15,2.3,19.8
			c2.5,2,5.6,3.1,8.8,3.1c4.3,0,8.4-1.9,11.1-5.3c4.8-6.1,3.8-15-2.3-19.8C149,37.7,146,36.7,142.8,36.7"/>
		<g>
			<path class="st2" d="M164.5,111.6c4.7,0,8.6-3.8,8.6-8.6V81.1c0-6.4-5.2-11.6-11.6-11.6l-11.7,0V52.4c0-3.6-2.8-6.7-6.4-6.8
				c-3.8-0.1-6.9,2.9-6.9,6.7v29.9l-1.7-3.6c-1-2-2.8-3.1-4.6-3.1c-0.9,0-1.7,0.2-2.5,0.7c-2.5,1.6-3.5,5.2-2.1,8.1
				c0,0,5.8,13.5,9.9,22.3c1.4,3,4.4,4.9,7.8,4.9L164.5,111.6L164.5,111.6z"/>
			<path class="st3" d="M164.5,111.6c4.7,0,8.6-3.8,8.6-8.6V81.1c0-6.4-5.2-11.6-11.6-11.6l-11.7,0V52.4c0-3.6-2.8-6.7-6.4-6.8
				c-3.8-0.1-6.9,2.9-6.9,6.7v29.9l-1.7-3.6c-1-2-2.8-3.1-4.6-3.1c-0.9,0-1.7,0.2-2.5,0.7c-2.5,1.6-3.5,5.2-2.1,8.1
				c0,0,5.8,13.5,9.9,22.3c1.4,3,4.4,4.9,7.8,4.9L164.5,111.6L164.5,111.6z"/>
		</g>
	</g>
	<g>
		<path d="M17.5,149.7l3.1,0.8c-0.6,2.5-1.8,4.5-3.5,5.8s-3.7,2-6.2,2c-2.5,0-4.6-0.5-6.1-1.5c-1.6-1-2.8-2.5-3.6-4.4
			c-0.8-1.9-1.2-4-1.2-6.2c0-2.4,0.5-4.5,1.4-6.4c0.9-1.8,2.2-3.2,4-4.1c1.7-0.9,3.6-1.4,5.7-1.4c2.3,0,4.3,0.6,5.9,1.8
			c1.6,1.2,2.7,2.9,3.3,5l-3,0.7c-0.5-1.7-1.3-2.9-2.4-3.7c-1-0.8-2.3-1.2-3.9-1.2c-1.8,0-3.3,0.4-4.5,1.3c-1.2,0.9-2,2-2.5,3.5
			s-0.7,2.9-0.7,4.5c0,2,0.3,3.7,0.9,5.2c0.6,1.5,1.5,2.6,2.7,3.3c1.2,0.7,2.5,1.1,4,1.1c1.7,0,3.2-0.5,4.4-1.5
			C16.3,153.2,17.1,151.7,17.5,149.7z"/>
		<path d="M23,157.9v-23.3h2.9v23.3H23z"/>
		<path d="M29.4,137.9v-3.3h2.9v3.3H29.4z M29.4,157.9V141h2.9v16.9H29.4z"/>
		<path d="M46.7,151.7l2.8,0.4c-0.3,1.9-1.1,3.5-2.4,4.6c-1.3,1.1-2.8,1.6-4.7,1.6c-2.3,0-4.2-0.8-5.6-2.3c-1.4-1.5-2.1-3.7-2.1-6.5
			c0-1.8,0.3-3.4,0.9-4.8c0.6-1.4,1.5-2.4,2.8-3.1s2.6-1,4-1c1.8,0,3.3,0.5,4.5,1.4c1.2,0.9,1.9,2.2,2.2,3.9l-2.8,0.4
			c-0.3-1.1-0.7-2-1.4-2.6s-1.5-0.9-2.4-0.9c-1.4,0-2.6,0.5-3.5,1.6c-0.9,1-1.4,2.7-1.4,4.9c0,2.3,0.4,3.9,1.3,4.9s2,1.5,3.4,1.5
			c1.1,0,2.1-0.3,2.8-1C46,154.2,46.5,153.2,46.7,151.7z"/>
		<path d="M58,152.9l2.8-0.4c0.2,1.1,0.6,2,1.3,2.6c0.7,0.6,1.7,0.9,3,0.9c1.3,0,2.3-0.3,2.9-0.8s1-1.2,1-1.9c0-0.6-0.3-1.2-0.8-1.5
			c-0.4-0.3-1.4-0.6-2.9-1c-2.1-0.5-3.6-1-4.4-1.4s-1.4-0.9-1.8-1.6c-0.4-0.7-0.6-1.4-0.6-2.3c0-0.8,0.2-1.4,0.5-2.1
			c0.3-0.6,0.8-1.2,1.4-1.6c0.4-0.3,1.1-0.6,1.8-0.8c0.8-0.2,1.6-0.3,2.5-0.3c1.3,0,2.5,0.2,3.5,0.6c1,0.4,1.7,0.9,2.2,1.5
			c0.5,0.7,0.8,1.5,1,2.6l-2.8,0.4c-0.1-0.9-0.5-1.5-1.1-2S66,143,64.9,143c-1.3,0-2.3,0.2-2.8,0.7c-0.6,0.4-0.8,0.9-0.8,1.5
			c0,0.4,0.1,0.7,0.3,1c0.2,0.3,0.6,0.6,1.1,0.8c0.3,0.1,1.1,0.4,2.5,0.7c2,0.5,3.4,1,4.2,1.3s1.4,0.8,1.9,1.5
			c0.5,0.7,0.7,1.5,0.7,2.4c0,1-0.3,1.9-0.8,2.7c-0.6,0.8-1.4,1.5-2.4,2s-2.2,0.7-3.6,0.7c-2.2,0-3.9-0.5-5-1.4
			C59,156,58.3,154.7,58,152.9z"/>
		<path d="M73.4,149.5c0-3.1,0.9-5.4,2.6-6.9c1.5-1.3,3.2-1.9,5.3-1.9c2.3,0,4.2,0.8,5.7,2.3c1.5,1.5,2.2,3.6,2.2,6.3
			c0,2.2-0.3,3.9-1,5.1c-0.7,1.2-1.6,2.2-2.8,2.9c-1.2,0.7-2.6,1-4.1,1c-2.4,0-4.3-0.8-5.7-2.3C74.1,154.5,73.4,152.3,73.4,149.5z
			 M76.3,149.5c0,2.2,0.5,3.8,1.4,4.9c0.9,1.1,2.1,1.6,3.6,1.6c1.4,0,2.6-0.5,3.5-1.6c0.9-1.1,1.4-2.7,1.4-4.9
			c0-2.1-0.5-3.7-1.4-4.7s-2.1-1.6-3.5-1.6c-1.4,0-2.6,0.5-3.6,1.6C76.8,145.7,76.3,147.3,76.3,149.5z"/>
		<path d="M94.2,157.9h-2.7v-23.3h2.9v8.3c1.2-1.5,2.8-2.3,4.6-2.3c1,0,2,0.2,2.9,0.6c0.9,0.4,1.7,1,2.3,1.8
			c0.6,0.8,1.1,1.7,1.4,2.7s0.5,2.2,0.5,3.4c0,2.9-0.7,5.1-2.1,6.7c-1.4,1.6-3.1,2.4-5.2,2.4c-2,0-3.6-0.8-4.7-2.5
			C94.2,155.8,94.2,157.9,94.2,157.9z M94.2,149.3c0,2,0.3,3.5,0.8,4.4c0.9,1.5,2.1,2.2,3.7,2.2c1.3,0,2.3-0.5,3.2-1.6
			c0.9-1.1,1.4-2.7,1.4-4.9c0-2.2-0.4-3.8-1.3-4.9s-1.9-1.6-3.2-1.6c-1.3,0-2.3,0.5-3.2,1.6C94.7,145.7,94.2,147.3,94.2,149.3z"/>
		<path d="M108.7,157.9V141h2.6v2.6c0.7-1.2,1.3-2,1.8-2.4c0.6-0.4,1.2-0.6,1.8-0.6c1,0,1.9,0.3,2.9,0.9l-1,2.7
			c-0.7-0.4-1.4-0.6-2.1-0.6c-0.6,0-1.2,0.2-1.7,0.6s-0.9,0.9-1.1,1.6c-0.3,1-0.5,2.1-0.5,3.3v8.8H108.7z"/>
		<path d="M130.2,152.5l3,0.4c-0.5,1.7-1.3,3.1-2.6,4c-1.3,1-2.9,1.4-4.8,1.4c-2.5,0-4.4-0.8-5.9-2.3c-1.4-1.5-2.2-3.7-2.2-6.4
			c0-2.8,0.7-5,2.2-6.6c1.5-1.6,3.4-2.4,5.7-2.4c2.3,0,4.1,0.8,5.5,2.3c1.4,1.5,2.1,3.7,2.1,6.5c0,0.2,0,0.4,0,0.8h-12.6
			c0.1,1.9,0.6,3.3,1.6,4.3c0.9,1,2.1,1.5,3.5,1.5c1,0,1.9-0.3,2.7-0.8C129.2,154.6,129.8,153.7,130.2,152.5z M120.8,147.8h9.4
			c-0.1-1.4-0.5-2.5-1.1-3.2c-0.9-1.1-2.1-1.7-3.5-1.7c-1.3,0-2.4,0.4-3.3,1.3C121.4,145.2,120.9,146.4,120.8,147.8z"/>
		<path d="M154.9,151.7l2.8,0.4c-0.3,1.9-1.1,3.5-2.4,4.6c-1.3,1.1-2.8,1.6-4.7,1.6c-2.3,0-4.2-0.8-5.6-2.3
			c-1.4-1.5-2.1-3.7-2.1-6.5c0-1.8,0.3-3.4,0.9-4.8c0.6-1.4,1.5-2.4,2.8-3.1s2.6-1,4-1c1.8,0,3.3,0.5,4.5,1.4
			c1.2,0.9,1.9,2.2,2.2,3.9l-2.8,0.4c-0.3-1.1-0.7-2-1.4-2.6s-1.5-0.9-2.4-0.9c-1.4,0-2.6,0.5-3.5,1.6c-0.9,1-1.4,2.7-1.4,4.9
			c0,2.3,0.4,3.9,1.3,4.9s2,1.5,3.4,1.5c1.1,0,2.1-0.3,2.8-1C154.2,154.2,154.7,153.2,154.9,151.7z"/>
		<path d="M170.3,155.8c-1.1,0.9-2.1,1.5-3.1,1.9s-2,0.6-3.2,0.6c-1.9,0-3.3-0.5-4.3-1.4s-1.5-2.1-1.5-3.5c0-0.8,0.2-1.6,0.6-2.3
			s0.9-1.2,1.5-1.6c0.6-0.4,1.3-0.7,2.1-0.9c0.6-0.1,1.4-0.3,2.5-0.4c2.3-0.3,4-0.6,5.1-1c0-0.4,0-0.6,0-0.7c0-1.2-0.3-2-0.8-2.5
			c-0.7-0.6-1.8-1-3.3-1c-1.3,0-2.3,0.2-3,0.7c-0.6,0.5-1.1,1.3-1.4,2.5l-2.8-0.4c0.3-1.2,0.7-2.2,1.3-2.9s1.4-1.3,2.5-1.7
			c1.1-0.4,2.4-0.6,3.8-0.6c1.4,0,2.6,0.2,3.5,0.5c0.9,0.3,1.6,0.8,2,1.3c0.4,0.5,0.7,1.2,0.9,1.9c0.1,0.5,0.1,1.4,0.1,2.6v3.8
			c0,2.7,0.1,4.3,0.2,5c0.1,0.7,0.4,1.4,0.7,2h-3C170.5,157.3,170.3,156.6,170.3,155.8z M170,149.4c-1,0.4-2.6,0.8-4.7,1.1
			c-1.2,0.2-2,0.4-2.5,0.6c-0.5,0.2-0.9,0.5-1.1,0.9c-0.3,0.4-0.4,0.9-0.4,1.4c0,0.8,0.3,1.4,0.9,1.9c0.6,0.5,1.4,0.8,2.5,0.8
			c1.1,0,2.1-0.2,2.9-0.7c0.9-0.5,1.5-1.1,1.9-2c0.3-0.6,0.5-1.6,0.5-2.9L170,149.4L170,149.4z"/>
		<path d="M187.4,157.9v-2.1c-1.1,1.7-2.6,2.5-4.7,2.5c-1.3,0-2.6-0.4-3.7-1.1c-1.1-0.7-2-1.8-2.6-3.1c-0.6-1.3-0.9-2.9-0.9-4.6
			c0-1.7,0.3-3.2,0.8-4.6c0.6-1.4,1.4-2.4,2.5-3.2c1.1-0.7,2.4-1.1,3.8-1.1c1,0,1.9,0.2,2.7,0.6s1.4,1,1.9,1.7v-8.4h2.8v23.3
			L187.4,157.9L187.4,157.9z M178.3,149.5c0,2.2,0.5,3.8,1.4,4.8s2,1.6,3.2,1.6c1.3,0,2.3-0.5,3.2-1.5s1.3-2.6,1.3-4.7
			c0-2.3-0.4-4-1.3-5.1c-0.9-1.1-2-1.6-3.3-1.6c-1.3,0-2.3,0.5-3.2,1.6C178.7,145.6,178.3,147.2,178.3,149.5z"/>
		<path d="M204.6,155.8c-1.1,0.9-2.1,1.5-3.1,1.9s-2,0.6-3.2,0.6c-1.9,0-3.3-0.5-4.3-1.4s-1.5-2.1-1.5-3.5c0-0.8,0.2-1.6,0.6-2.3
			s0.9-1.2,1.5-1.6c0.6-0.4,1.3-0.7,2.1-0.9c0.6-0.1,1.4-0.3,2.5-0.4c2.3-0.3,4-0.6,5.1-1c0-0.4,0-0.6,0-0.7c0-1.2-0.3-2-0.8-2.5
			c-0.7-0.6-1.8-1-3.3-1c-1.3,0-2.3,0.2-3,0.7c-0.6,0.5-1.1,1.3-1.4,2.5l-2.8-0.4c0.3-1.2,0.7-2.2,1.3-2.9s1.4-1.3,2.5-1.7
			c1.1-0.4,2.4-0.6,3.8-0.6c1.4,0,2.6,0.2,3.5,0.5c0.9,0.3,1.6,0.8,2,1.3c0.4,0.5,0.7,1.2,0.9,1.9c0.1,0.5,0.1,1.4,0.1,2.6v3.8
			c0,2.7,0.1,4.3,0.2,5c0.1,0.7,0.4,1.4,0.7,2h-3C204.9,157.3,204.7,156.6,204.6,155.8z M204.3,149.4c-1,0.4-2.6,0.8-4.7,1.1
			c-1.2,0.2-2,0.4-2.5,0.6c-0.5,0.2-0.9,0.5-1.1,0.9c-0.3,0.4-0.4,0.9-0.4,1.4c0,0.8,0.3,1.4,0.9,1.9c0.6,0.5,1.4,0.8,2.5,0.8
			c1.1,0,2.1-0.2,2.9-0.7c0.9-0.5,1.5-1.1,1.9-2c0.3-0.6,0.5-1.6,0.5-2.9L204.3,149.4L204.3,149.4z"/>
		<path d="M221.5,157.9h-2.7v-23.3h2.9v8.3c1.2-1.5,2.8-2.3,4.6-2.3c1,0,2,0.2,2.9,0.6c0.9,0.4,1.7,1,2.3,1.8
			c0.6,0.8,1.1,1.7,1.4,2.7s0.5,2.2,0.5,3.4c0,2.9-0.7,5.1-2.1,6.7c-1.4,1.6-3.1,2.4-5.1,2.4c-2,0-3.6-0.8-4.7-2.5L221.5,157.9
			L221.5,157.9z M221.4,149.3c0,2,0.3,3.5,0.8,4.4c0.9,1.5,2.1,2.2,3.7,2.2c1.3,0,2.3-0.5,3.2-1.6c0.9-1.1,1.4-2.7,1.4-4.9
			c0-2.2-0.4-3.8-1.3-4.9s-1.9-1.6-3.2-1.6c-1.3,0-2.3,0.5-3.2,1.6C221.9,145.7,221.4,147.3,221.4,149.3z"/>
		<path d="M234.9,149.5c0-3.1,0.9-5.4,2.6-6.9c1.5-1.3,3.2-1.9,5.3-1.9c2.3,0,4.2,0.8,5.7,2.3c1.5,1.5,2.2,3.6,2.2,6.3
			c0,2.2-0.3,3.9-1,5.1c-0.7,1.2-1.6,2.2-2.8,2.9c-1.2,0.7-2.6,1-4.1,1c-2.4,0-4.3-0.8-5.7-2.3C235.6,154.5,234.9,152.3,234.9,149.5
			z M237.9,149.5c0,2.2,0.5,3.8,1.4,4.9c0.9,1.1,2.1,1.6,3.6,1.6c1.4,0,2.6-0.5,3.5-1.6c0.9-1.1,1.4-2.7,1.4-4.9
			c0-2.1-0.5-3.7-1.4-4.7s-2.1-1.6-3.5-1.6c-1.4,0-2.6,0.5-3.6,1.6C238.3,145.7,237.9,147.3,237.9,149.5z"/>
		<path d="M259.4,155.3l0.4,2.5c-0.8,0.2-1.5,0.3-2.2,0.3c-1,0-1.8-0.2-2.4-0.5c-0.6-0.3-1-0.8-1.2-1.3c-0.2-0.5-0.4-1.7-0.4-3.4
			v-9.7h-2.1V141h2.1v-4.2l2.8-1.7v5.9h2.9v2.2h-2.9v9.9c0,0.8,0,1.3,0.2,1.6c0.1,0.2,0.3,0.4,0.5,0.6s0.6,0.2,1,0.2
			C258.5,155.5,258.9,155.4,259.4,155.3z"/>
		<path d="M260.2,149.5c0-3.1,0.9-5.4,2.6-6.9c1.5-1.3,3.2-1.9,5.3-1.9c2.3,0,4.2,0.8,5.7,2.3c1.5,1.5,2.2,3.6,2.2,6.3
			c0,2.2-0.3,3.9-1,5.1c-0.7,1.2-1.6,2.2-2.8,2.9c-1.2,0.7-2.6,1-4.1,1c-2.4,0-4.3-0.8-5.7-2.3C260.9,154.5,260.2,152.3,260.2,149.5
			z M263.1,149.5c0,2.2,0.5,3.8,1.4,4.9c0.9,1.1,2.1,1.6,3.6,1.6c1.4,0,2.6-0.5,3.5-1.6c0.9-1.1,1.4-2.7,1.4-4.9
			c0-2.1-0.5-3.7-1.4-4.7s-2.1-1.6-3.5-1.6c-1.4,0-2.6,0.5-3.6,1.6C263.6,145.7,263.1,147.3,263.1,149.5z M266.5,138.9l2.1-4.5h3.8
			l-3.5,4.5H266.5z"/>
		<path d="M278.4,157.9V141h2.6v2.4c1.2-1.9,3-2.8,5.4-2.8c1,0,2,0.2,2.8,0.5c0.9,0.4,1.5,0.8,1.9,1.4s0.7,1.3,0.9,2.1
			c0.1,0.5,0.2,1.5,0.2,2.8v10.4h-2.9v-10.3c0-1.2-0.1-2-0.3-2.6c-0.2-0.6-0.6-1-1.2-1.4c-0.6-0.3-1.2-0.5-2-0.5
			c-1.2,0-2.3,0.4-3.2,1.2s-1.3,2.2-1.3,4.4v9.2L278.4,157.9L278.4,157.9z"/>
		<path d="M1,203.4v-23.4h2.6v2.2c0.6-0.9,1.3-1.5,2.1-1.9c0.8-0.4,1.7-0.6,2.8-0.6c1.4,0,2.7,0.4,3.8,1.1c1.1,0.7,1.9,1.8,2.5,3.1
			s0.8,2.8,0.8,4.4c0,1.7-0.3,3.3-0.9,4.7s-1.5,2.4-2.7,3.2s-2.4,1.1-3.7,1.1c-1,0-1.8-0.2-2.6-0.6c-0.8-0.4-1.4-0.9-1.9-1.5v8.2
			L1,203.4L1,203.4z M3.6,188.6c0,2.2,0.4,3.8,1.3,4.8c0.9,1,1.9,1.6,3.2,1.6c1.3,0,2.4-0.5,3.3-1.6s1.4-2.7,1.4-5
			c0-2.1-0.4-3.8-1.3-4.8s-1.9-1.6-3.2-1.6c-1.2,0-2.3,0.6-3.2,1.7S3.6,186.5,3.6,188.6z"/>
		<path d="M29.2,194.9c-1.1,0.9-2.1,1.5-3.1,1.9c-1,0.4-2,0.6-3.2,0.6c-1.9,0-3.3-0.5-4.3-1.4s-1.5-2.1-1.5-3.5
			c0-0.8,0.2-1.6,0.6-2.3s0.9-1.2,1.5-1.6s1.3-0.7,2.1-0.9c0.6-0.1,1.4-0.3,2.5-0.4c2.3-0.3,4-0.6,5.1-1c0-0.4,0-0.6,0-0.7
			c0-1.2-0.3-2-0.8-2.5c-0.7-0.6-1.8-1-3.3-1c-1.3,0-2.3,0.2-3,0.7c-0.6,0.5-1.1,1.3-1.4,2.5l-2.8-0.4c0.3-1.2,0.7-2.2,1.3-2.9
			c0.6-0.7,1.4-1.3,2.5-1.7c1.1-0.4,2.4-0.6,3.8-0.6c1.4,0,2.6,0.2,3.5,0.5c0.9,0.3,1.6,0.8,2,1.3s0.7,1.2,0.9,1.9
			c0.1,0.5,0.1,1.4,0.1,2.6v3.8c0,2.7,0.1,4.3,0.2,5c0.1,0.7,0.4,1.4,0.7,2h-3C29.4,196.4,29.2,195.7,29.2,194.9z M28.9,188.5
			c-1,0.4-2.6,0.8-4.7,1.1c-1.2,0.2-2,0.4-2.5,0.6s-0.9,0.5-1.1,0.9c-0.3,0.4-0.4,0.9-0.4,1.4c0,0.8,0.3,1.4,0.9,1.9
			c0.6,0.5,1.4,0.8,2.5,0.8c1.1,0,2.1-0.2,2.9-0.7c0.9-0.5,1.5-1.1,1.9-2c0.3-0.6,0.5-1.6,0.5-2.9V188.5z"/>
		<path d="M35.3,197v-16.9h2.6v2.6c0.7-1.2,1.3-2,1.8-2.4c0.6-0.4,1.2-0.6,1.8-0.6c1,0,1.9,0.3,2.9,0.9l-1,2.7
			c-0.7-0.4-1.4-0.6-2.1-0.6c-0.6,0-1.2,0.2-1.7,0.6c-0.5,0.4-0.9,0.9-1.1,1.6c-0.3,1-0.5,2.1-0.5,3.3v8.8L35.3,197L35.3,197z"/>
		<path d="M56.2,194.9c-1.1,0.9-2.1,1.5-3.1,1.9c-1,0.4-2,0.6-3.2,0.6c-1.9,0-3.3-0.5-4.3-1.4s-1.5-2.1-1.5-3.5
			c0-0.8,0.2-1.6,0.6-2.3s0.9-1.2,1.5-1.6s1.3-0.7,2.1-0.9c0.6-0.1,1.4-0.3,2.5-0.4c2.3-0.3,4-0.6,5.1-1c0-0.4,0-0.6,0-0.7
			c0-1.2-0.3-2-0.8-2.5c-0.7-0.6-1.8-1-3.3-1c-1.3,0-2.3,0.2-3,0.7c-0.6,0.5-1.1,1.3-1.4,2.5l-2.8-0.4c0.3-1.2,0.7-2.2,1.3-2.9
			c0.6-0.7,1.4-1.3,2.5-1.7c1.1-0.4,2.4-0.6,3.8-0.6c1.4,0,2.6,0.2,3.5,0.5c0.9,0.3,1.6,0.8,2,1.3s0.7,1.2,0.9,1.9
			c0.1,0.5,0.1,1.4,0.1,2.6v3.8c0,2.7,0.1,4.3,0.2,5c0.1,0.7,0.4,1.4,0.7,2h-3C56.5,196.4,56.3,195.7,56.2,194.9z M56,188.5
			c-1,0.4-2.6,0.8-4.7,1.1c-1.2,0.2-2,0.4-2.5,0.6s-0.9,0.5-1.1,0.9c-0.3,0.4-0.4,0.9-0.4,1.4c0,0.8,0.3,1.4,0.9,1.9
			c0.6,0.5,1.4,0.8,2.5,0.8c1.1,0,2.1-0.2,2.9-0.7c0.9-0.5,1.5-1.1,1.9-2c0.3-0.6,0.5-1.6,0.5-2.9V188.5z"/>
		<path d="M70.5,197v-16.9H73v2.4c0.5-0.8,1.2-1.5,2.1-2c0.9-0.5,1.9-0.8,3-0.8c1.3,0,2.3,0.3,3.1,0.8c0.8,0.5,1.4,1.2,1.7,2.2
			c1.3-2,3.1-3,5.2-3c1.7,0,3,0.5,3.9,1.4c0.9,0.9,1.4,2.4,1.4,4.3V197h-2.8v-10.6c0-1.1-0.1-2-0.3-2.5c-0.2-0.5-0.5-0.9-1-1.2
			c-0.5-0.3-1.1-0.5-1.7-0.5c-1.2,0-2.2,0.4-3,1.2s-1.2,2.1-1.2,3.8v9.8h-2.9v-11c0-1.3-0.2-2.2-0.7-2.9c-0.5-0.6-1.2-1-2.3-1
			c-0.8,0-1.6,0.2-2.2,0.6s-1.2,1-1.5,1.9s-0.5,2-0.5,3.5v8.8L70.5,197L70.5,197z"/>
		<path d="M107.6,194.9c-1.1,0.9-2.1,1.5-3.1,1.9c-1,0.4-2,0.6-3.2,0.6c-1.9,0-3.3-0.5-4.3-1.4s-1.5-2.1-1.5-3.5
			c0-0.8,0.2-1.6,0.6-2.3s0.9-1.2,1.5-1.6s1.3-0.7,2.1-0.9c0.6-0.1,1.4-0.3,2.5-0.4c2.3-0.3,4-0.6,5.1-1c0-0.4,0-0.6,0-0.7
			c0-1.2-0.3-2-0.8-2.5c-0.7-0.6-1.8-1-3.3-1c-1.3,0-2.3,0.2-3,0.7c-0.6,0.5-1.1,1.3-1.4,2.5l-2.8-0.4c0.3-1.2,0.7-2.2,1.3-2.9
			c0.6-0.7,1.4-1.3,2.5-1.7c1.1-0.4,2.4-0.6,3.8-0.6c1.4,0,2.6,0.2,3.5,0.5c0.9,0.3,1.6,0.8,2,1.3s0.7,1.2,0.9,1.9
			c0.1,0.5,0.1,1.4,0.1,2.6v3.8c0,2.7,0.1,4.3,0.2,5c0.1,0.7,0.4,1.4,0.7,2h-3C107.9,196.4,107.7,195.7,107.6,194.9z M107.4,188.5
			c-1,0.4-2.6,0.8-4.7,1.1c-1.2,0.2-2,0.4-2.5,0.6s-0.9,0.5-1.1,0.9c-0.3,0.4-0.4,0.9-0.4,1.4c0,0.8,0.3,1.4,0.9,1.9
			c0.6,0.5,1.4,0.8,2.5,0.8c1.1,0,2.1-0.2,2.9-0.7c0.9-0.5,1.5-1.1,1.9-2c0.3-0.6,0.5-1.6,0.5-2.9V188.5z"/>
		<path d="M112.6,191.9l2.8-0.4c0.2,1.1,0.6,2,1.3,2.6c0.7,0.6,1.7,0.9,3,0.9c1.3,0,2.3-0.3,2.9-0.8c0.6-0.5,1-1.2,1-1.9
			c0-0.6-0.3-1.2-0.8-1.5c-0.4-0.3-1.4-0.6-2.9-1c-2.1-0.5-3.6-1-4.4-1.4c-0.8-0.4-1.4-0.9-1.8-1.6c-0.4-0.7-0.6-1.4-0.6-2.3
			c0-0.8,0.2-1.4,0.5-2.1c0.3-0.6,0.8-1.2,1.4-1.6c0.4-0.3,1.1-0.6,1.8-0.8c0.8-0.2,1.6-0.3,2.5-0.3c1.3,0,2.5,0.2,3.5,0.6
			c1,0.4,1.7,0.9,2.2,1.6c0.5,0.7,0.8,1.5,1,2.6l-2.8,0.4c-0.1-0.9-0.5-1.5-1.1-2c-0.6-0.5-1.5-0.7-2.6-0.7c-1.3,0-2.3,0.2-2.8,0.7
			c-0.6,0.4-0.8,0.9-0.8,1.5c0,0.4,0.1,0.7,0.3,1c0.2,0.3,0.6,0.6,1.1,0.8c0.3,0.1,1.1,0.4,2.5,0.7c2,0.5,3.4,1,4.2,1.3
			c0.8,0.3,1.4,0.8,1.9,1.5c0.5,0.7,0.7,1.5,0.7,2.4c0,1-0.3,1.9-0.8,2.7s-1.4,1.5-2.4,2s-2.2,0.7-3.6,0.7c-2.2,0-3.9-0.5-5-1.4
			C113.7,195.1,113,193.7,112.6,191.9z"/>
		<path d="M137.2,177v-3.3h2.9v3.3H137.2z M137.2,197v-16.9h2.9V197H137.2z"/>
		<path d="M143.5,197v-16.9h2.6v2.4c1.2-1.9,3-2.8,5.4-2.8c1,0,2,0.2,2.8,0.5c0.9,0.4,1.5,0.8,1.9,1.4s0.7,1.3,0.9,2.1
			c0.1,0.5,0.2,1.5,0.2,2.8V197h-2.9v-10.3c0-1.2-0.1-2-0.3-2.6c-0.2-0.6-0.6-1-1.2-1.4s-1.2-0.5-2-0.5c-1.2,0-2.3,0.4-3.2,1.2
			s-1.3,2.2-1.3,4.4v9.2L143.5,197L143.5,197z"/>
		<path d="M161.4,197v-14.7h-2.5v-2.2h2.5v-1.8c0-1.1,0.1-2,0.3-2.5c0.3-0.7,0.8-1.3,1.5-1.8c0.7-0.5,1.7-0.7,2.9-0.7
			c0.8,0,1.7,0.1,2.7,0.3l-0.4,2.5c-0.6-0.1-1.2-0.2-1.7-0.2c-0.9,0-1.5,0.2-1.8,0.6s-0.5,1.1-0.5,2.1v1.6h3.3v2.2h-3.3V197
			L161.4,197L161.4,197z"/>
		<path d="M167.7,188.5c0-3.1,0.9-5.4,2.6-6.9c1.5-1.3,3.2-1.9,5.3-1.9c2.3,0,4.2,0.8,5.7,2.3c1.5,1.5,2.2,3.6,2.2,6.3
			c0,2.2-0.3,3.9-1,5.1s-1.6,2.2-2.8,2.9c-1.2,0.7-2.6,1-4.1,1c-2.4,0-4.3-0.8-5.7-2.3C168.4,193.6,167.7,191.4,167.7,188.5z
			 M170.7,188.5c0,2.2,0.5,3.8,1.4,4.9c0.9,1.1,2.1,1.6,3.6,1.6c1.4,0,2.6-0.5,3.5-1.6s1.4-2.7,1.4-4.9c0-2.1-0.5-3.7-1.4-4.7
			c-0.9-1.1-2.1-1.6-3.5-1.6c-1.4,0-2.6,0.5-3.6,1.6C171.1,184.8,170.7,186.4,170.7,188.5z"/>
		<path d="M185.9,197v-16.9h2.6v2.6c0.7-1.2,1.3-2,1.8-2.4c0.6-0.4,1.2-0.6,1.8-0.6c1,0,1.9,0.3,2.9,0.9l-1,2.7
			c-0.7-0.4-1.4-0.6-2.1-0.6c-0.6,0-1.2,0.2-1.7,0.6c-0.5,0.4-0.9,0.9-1.1,1.6c-0.3,1-0.5,2.1-0.5,3.3v8.8L185.9,197L185.9,197z"/>
		<path d="M195.8,197v-16.9h2.6v2.4c0.5-0.8,1.2-1.5,2.1-2c0.9-0.5,1.9-0.8,3-0.8c1.3,0,2.3,0.3,3.1,0.8c0.8,0.5,1.4,1.2,1.7,2.2
			c1.3-2,3.1-3,5.2-3c1.7,0,3,0.5,3.9,1.4c0.9,0.9,1.4,2.4,1.4,4.3V197h-2.8v-10.6c0-1.1-0.1-2-0.3-2.5c-0.2-0.5-0.5-0.9-1-1.2
			c-0.5-0.3-1.1-0.5-1.7-0.5c-1.2,0-2.2,0.4-3,1.2s-1.2,2.1-1.2,3.8v9.8h-2.9v-11c0-1.3-0.2-2.2-0.7-2.9c-0.5-0.6-1.2-1-2.3-1
			c-0.8,0-1.6,0.2-2.2,0.6s-1.2,1-1.5,1.9s-0.5,2-0.5,3.5v8.8L195.8,197L195.8,197z"/>
		<path d="M233,194.9c-1.1,0.9-2.1,1.5-3.1,1.9c-1,0.4-2,0.6-3.2,0.6c-1.9,0-3.3-0.5-4.3-1.4s-1.5-2.1-1.5-3.5
			c0-0.8,0.2-1.6,0.6-2.3s0.9-1.2,1.5-1.6s1.3-0.7,2.1-0.9c0.6-0.1,1.4-0.3,2.5-0.4c2.3-0.3,4-0.6,5.1-1c0-0.4,0-0.6,0-0.7
			c0-1.2-0.3-2-0.8-2.5c-0.7-0.6-1.8-1-3.3-1c-1.3,0-2.3,0.2-3,0.7c-0.6,0.5-1.1,1.3-1.4,2.5l-2.8-0.4c0.3-1.2,0.7-2.2,1.3-2.9
			c0.6-0.7,1.4-1.3,2.5-1.7c1.1-0.4,2.4-0.6,3.8-0.6c1.4,0,2.6,0.2,3.5,0.5c0.9,0.3,1.6,0.8,2,1.3s0.7,1.2,0.9,1.9
			c0.1,0.5,0.1,1.4,0.1,2.6v3.8c0,2.7,0.1,4.3,0.2,5c0.1,0.7,0.4,1.4,0.7,2h-3C233.3,196.4,233.1,195.7,233,194.9z M232.8,188.5
			c-1,0.4-2.6,0.8-4.7,1.1c-1.2,0.2-2,0.4-2.5,0.6s-0.9,0.5-1.1,0.9c-0.3,0.4-0.4,0.9-0.4,1.4c0,0.8,0.3,1.4,0.9,1.9
			c0.6,0.5,1.4,0.8,2.5,0.8c1.1,0,2.1-0.2,2.9-0.7c0.9-0.5,1.5-1.1,1.9-2c0.3-0.6,0.5-1.6,0.5-2.9L232.8,188.5L232.8,188.5z"/>
		<path d="M250.2,190.8l2.8,0.4c-0.3,1.9-1.1,3.5-2.4,4.6c-1.3,1.1-2.8,1.6-4.7,1.6c-2.3,0-4.2-0.8-5.6-2.3
			c-1.4-1.5-2.1-3.7-2.1-6.5c0-1.8,0.3-3.4,0.9-4.8s1.5-2.4,2.8-3.1s2.6-1,4-1c1.8,0,3.3,0.5,4.5,1.4c1.2,0.9,1.9,2.2,2.2,3.9
			l-2.8,0.4c-0.3-1.1-0.7-2-1.4-2.6s-1.5-0.9-2.4-0.9c-1.4,0-2.6,0.5-3.5,1.6s-1.4,2.7-1.4,4.9c0,2.3,0.4,3.9,1.3,4.9
			c0.9,1,2,1.5,3.4,1.5c1.1,0,2.1-0.3,2.8-1S250,192.2,250.2,190.8z"/>
		<path d="M254.5,177v-3.3h2.9v3.3H254.5z M254.5,197v-16.9h2.9V197H254.5z"/>
		<path d="M259.7,188.5c0-3.1,0.9-5.4,2.6-6.9c1.5-1.3,3.2-1.9,5.3-1.9c2.3,0,4.2,0.8,5.7,2.3c1.5,1.5,2.2,3.6,2.2,6.3
			c0,2.2-0.3,3.9-1,5.1s-1.6,2.2-2.8,2.9c-1.2,0.7-2.6,1-4.1,1c-2.4,0-4.3-0.8-5.7-2.3C260.5,193.6,259.7,191.4,259.7,188.5z
			 M262.7,188.5c0,2.2,0.5,3.8,1.4,4.9c0.9,1.1,2.1,1.6,3.6,1.6c1.4,0,2.6-0.5,3.5-1.6s1.4-2.7,1.4-4.9c0-2.1-0.5-3.7-1.4-4.7
			c-0.9-1.1-2.1-1.6-3.5-1.6c-1.4,0-2.6,0.5-3.6,1.6C263.1,184.8,262.7,186.4,262.7,188.5z M266,178l2.1-4.4h3.8l-3.5,4.4H266z"/>
		<path d="M277.9,197v-16.9h2.6v2.4c1.2-1.9,3-2.8,5.4-2.8c1,0,2,0.2,2.8,0.5c0.9,0.4,1.5,0.8,1.9,1.4s0.7,1.3,0.9,2.1
			c0.1,0.5,0.2,1.5,0.2,2.8V197h-2.9v-10.3c0-1.2-0.1-2-0.3-2.6c-0.2-0.6-0.6-1-1.2-1.4s-1.2-0.5-2-0.5c-1.2,0-2.3,0.4-3.2,1.2
			s-1.3,2.2-1.3,4.4v9.2L277.9,197L277.9,197z"/>
		<polygon points="103.1,177.5 105.2,173.1 108.9,173.1 105.4,177.5 		"/>
	</g>
</g>
</svg>
