<?xml version="1.0" encoding="utf-8"?>
<!-- Generator: Adobe Illustrator 22.1.0, SVG Export Plug-In . SVG Version: 6.00 Build 0)  -->
<svg version="1.1" id="Capa_1" xmlns="http://www.w3.org/2000/svg" xmlns:xlink="http://www.w3.org/1999/xlink" x="0px" y="0px"
	 viewBox="0 0 455.6 149.7" style="enable-background:new 0 0 455.6 149.7;" xml:space="preserve">
<style type="text/css">
	.st0{fill:none;}
	.st1{font-family:'ArialMT';}
	.st2{font-size:15px;}
	.st3{letter-spacing:4;}
	.st4{letter-spacing:1;}
	.st5{letter-spacing:2;}
	.st6{fill:#FFFFFF;}
	.st7{fill:#EC7522;}
	.st8{fill:#232923;}
</style>
<rect x="0" y="2.1" class="st0" width="451.4" height="147.5"/>
<text transform="matrix(1 0 0 1 2.246094e-02 12.872)"><tspan x="0" y="0" class="st1 st2">En</tspan><tspan x="18.3" y="0" class="st1 st2 st3"> </tspan><tspan x="26.7" y="0" class="st1 st2">la</tspan><tspan x="38.4" y="0" class="st1 st2 st3"> </tspan><tspan x="46.8" y="0" class="st1 st2">actualidad</tspan><tspan x="115.2" y="0" class="st1 st2 st3"> </tspan><tspan x="123.6" y="0" class="st1 st2">existen</tspan><tspan x="171.1" y="0" class="st1 st2 st3"> </tspan><tspan x="179.5" y="0" class="st1 st2">muchas</tspan><tspan x="232" y="0" class="st1 st2 st3"> </tspan><tspan x="240.4" y="0" class="st1 st2">herramientas</tspan><tspan x="327.9" y="0" class="st1 st2 st3"> </tspan><tspan x="336.3" y="0" class="st1 st2">software</tspan><tspan x="393" y="0" class="st1 st2 st3"> </tspan><tspan x="401.4" y="0" class="st1 st2">para</tspan><tspan x="431.4" y="0" class="st1 st2 st3"> </tspan><tspan x="439.8" y="0" class="st1 st2">el </tspan><tspan x="0" y="18" class="st1 st2">Diseño</tspan><tspan x="46.7" y="18" class="st1 st2 st4"> </tspan><tspan x="52.6" y="18" class="st1 st2">de</tspan><tspan x="69.3" y="18" class="st1 st2 st4"> </tspan><tspan x="75.1" y="18" class="st1 st2">Interfaces.</tspan><tspan x="145.2" y="18" class="st1 st2 st4"> </tspan><tspan x="151" y="18" class="st1 st2">Dentro</tspan><tspan x="196.1" y="18" class="st1 st2 st4"> </tspan><tspan x="201.9" y="18" class="st1 st2">de</tspan><tspan x="218.6" y="18" class="st1 st2 st4"> </tspan><tspan x="224.5" y="18" class="st1 st2">ellas</tspan><tspan x="255.4" y="18" class="st1 st2 st4"> </tspan><tspan x="261.2" y="18" class="st1 st2">se</tspan><tspan x="277.1" y="18" class="st1 st2 st4"> </tspan><tspan x="283" y="18" class="st1 st2">encuentran</tspan><tspan x="358" y="18" class="st1 st2 st4"> </tspan><tspan x="363.9" y="18" class="st1 st2">herramientas </tspan><tspan x="0" y="36" class="st1 st2">web y herramientas de aplicaciones Windows.</tspan><tspan x="0" y="72" class="st1 st2">Las</tspan><tspan x="24.2" y="72" class="st1 st2 st5"> </tspan><tspan x="31" y="72" class="st1 st2">herramientas</tspan><tspan x="118.5" y="72" class="st1 st2 st5"> </tspan><tspan x="125.3" y="72" class="st1 st2">de</tspan><tspan x="142" y="72" class="st1 st2 st5"> </tspan><tspan x="148.8" y="72" class="st1 st2">desarrollo</tspan><tspan x="214.7" y="72" class="st1 st2 st5"> </tspan><tspan x="221.5" y="72" class="st1 st2">de</tspan><tspan x="238.2" y="72" class="st1 st2 st5"> </tspan><tspan x="245" y="72" class="st1 st2">software</tspan><tspan x="301.7" y="72" class="st1 st2 st5"> </tspan><tspan x="308.5" y="72" class="st1 st2">como</tspan><tspan x="345.1" y="72" class="st1 st2 st5"> </tspan><tspan x="351.9" y="72" class="st1 st2">visual</tspan><tspan x="390.3" y="72" class="st1 st2 st5"> </tspan><tspan x="397.1" y="72" class="st1 st2">studio</tspan><tspan x="437.1" y="72" class="st1 st2 st5"> </tspan><tspan x="443.9" y="72" class="st1 st2">y </tspan><tspan x="0" y="90" class="st1 st2">netbeans, incluyen elementos propios para el diseño de interfaces.</tspan><tspan x="0" y="126" class="st1 st2">A continuación se relacionan tres (3) herramientas posibles a utilizar:</tspan></text>
</svg>
