<?xml version="1.0" encoding="utf-8"?>
<!-- Generator: Adobe Illustrator 22.1.0, SVG Export Plug-In . SVG Version: 6.00 Build 0)  -->
<svg version="1.1" id="Capa_1" xmlns="http://www.w3.org/2000/svg" xmlns:xlink="http://www.w3.org/1999/xlink" x="0px" y="0px"
	 viewBox="0 0 246 45.1" style="enable-background:new 0 0 246 45.1;" xml:space="preserve">
<style type="text/css">
	.st0{fill:#FFFFFF;}
	.st1{fill:#EC7522;}
	.st2{fill:#232923;}
</style>
<g>
	<rect x="3.4" y="2.8" class="st0" width="241" height="39"/>
	<rect x="192.4" y="2.8" class="st1" width="52" height="39"/>
	<path class="st2" d="M240.2,3.8c1.3,0,2.3,1,2.3,2.3l1.3,31.1c0,0.4-0.1,1.3,1.1,1.4c0.4,0,0.4-0.3,0.4-0.7V3.1
		c0-1.6-0.9-2.9-2.5-2.9C218.5,0.2,49.8-0.1,28,0C9.7,0.1,2.1-0.1,0.8,1.1C-0.9,4,0.5,30.7,0.9,43.2c-0.9,0.2-0.7,0.9-0.4,1.4
		C0.9,45.3,3.8,45,4.7,45C6,45,198,44.9,244.7,44c0.8,0,1.4-0.6,1.4-1.4c0-0.8-0.6-1.4-1.4-1.4c-6.2-0.1-13.4-0.2-16.9-0.2
		c-1.7,0-14.5,0.1-33.1,0.2c0-6.1,0-12.2,0-18.4c0-6.2,0.7-12.9-0.2-19.1C212.6,3.8,228.8,3.8,240.2,3.8z M3.2,42.8
		c-0.2,0,0.2-10.9,0.1-16.6c0-4.6,0-17.9-0.4-22.5c3-0.1,6-0.2,9-0.2C22.2,3.8,32.7,3.6,43,3.7c9.3,0.1,88.8,0,148.6,0
		c-0.8,5.5-1.3,11.3-1.3,16.8c0,3.2,0,6.5,0,9.7c0,3.6,0,7.3,0,10.9c-60,0.3-172.5,1-177.9,1.2C9,42.6,6.6,42.5,3.2,42.8z"/>
	<g>
		<g>
			<path class="st1" d="M22.9,28c0,0.1,0,0.2-0.1,0.3c0,0.1-0.1,0.2-0.2,0.2c-0.1,0.1-0.1,0.1-0.2,0.2s-0.2,0.1-0.3,0.1
				c-0.3,0-0.5-0.2-0.6-0.5c0-0.1-0.1-0.4-0.2-0.9c-0.1-0.4-0.2-1-0.4-1.9h-0.1c-0.4,0-0.9,0-1.6,0.1c-0.4,0-0.7,0.1-1,0.1
				c-0.3,0-0.5,0-0.6,0c-0.1,0.3-0.3,0.7-0.4,1.2s-0.4,1-0.6,1.7c-0.3,0.1-0.5,0.1-0.7,0.1c-0.4,0-0.6-0.1-0.6-0.4
				c0-0.1,0.2-0.7,0.5-1.6c0.2-0.5,0.4-1.2,0.7-2c0.3-0.8,0.6-1.8,1-2.8c0.1-0.3,0.2-0.6,0.4-1c0.1-0.4,0.3-0.8,0.5-1.4
				c0.1-0.2,0.2-0.6,0.4-1c0.1-0.2,0.2-0.3,0.3-0.3c0.1,0,0.3-0.1,0.5-0.1c0.2,0,0.4,0.1,0.5,0.3c0.2,0.3,0.4,0.8,0.6,1.3
				c0.1,0.2,0.1,0.5,0.2,0.7c0.1,0.2,0.1,0.5,0.2,0.7c0.3,1,0.6,1.9,0.8,2.7s0.5,1.6,0.6,2.4C22.8,27.2,22.9,27.8,22.9,28z
				 M20.5,24.1c-0.2-0.6-0.3-1.1-0.5-1.7c-0.2-0.6-0.4-1.2-0.6-1.7c-0.1,0.2-0.2,0.7-0.4,1.3s-0.5,1.4-0.9,2.4
				C18.7,24.2,19.5,24.1,20.5,24.1z"/>
			<path class="st1" d="M32.8,23.5c0,1.4-0.5,2.7-1.4,3.7c-1,1-2.2,1.6-3.6,1.6c-0.4,0-0.9-0.1-1.4-0.3c-0.6-0.2-1-0.5-1-0.8
				c0-0.2,0.1-0.4,0.2-0.5c0.1-0.1,0.3-0.2,0.5-0.2c0.1,0,0.1,0,0.2,0c0-0.5,0-1.4,0-2.6s0-2.7,0-4.5h0c-0.4,0-0.6-0.2-0.6-0.5
				l0-0.1c0.2-0.5,0.5-0.8,0.9-1c0.3-0.1,0.8-0.2,1.4-0.2c1.4,0,2.6,0.6,3.5,1.7C32.4,20.8,32.8,22.1,32.8,23.5z M31.4,23.4
				c0-0.7-0.1-1.3-0.4-1.9c-0.3-0.7-0.7-1.2-1.2-1.5c-0.6-0.4-1.3-0.6-2.1-0.6c0,0.9,0,2,0,3.2c0,1.3,0,2.8,0,4.5h0.1
				c1,0,1.9-0.4,2.6-1.1C31,25.4,31.4,24.5,31.4,23.4z"/>
			<path class="st1" d="M42.9,23.6c0,1.3-0.3,2.5-0.9,3.4c-0.7,1.1-1.7,1.7-2.9,1.7c-1.2,0-2.2-0.5-2.9-1.4
				c-0.6-0.8-0.9-1.9-0.9-3.2c0-1.4,0.3-2.7,0.9-3.9c0.7-1.4,1.7-2.1,3-2.1c1.2,0,2.2,0.6,2.9,1.9C42.6,21.1,42.9,22.3,42.9,23.6z
				 M41.5,23.6c0-0.8-0.1-1.5-0.3-2.2c-0.3-0.9-0.7-1.4-1.3-1.7c-0.2-0.1-0.4-0.2-0.5-0.2c-0.3,0-0.6,0.1-0.9,0.3
				c-0.6,0.3-1.1,0.9-1.3,1.9c-0.2,0.7-0.3,1.5-0.3,2.4c0,2.2,0.9,3.3,2.6,3.3c0.7,0,1.3-0.5,1.7-1.4C41.3,25.2,41.5,24.5,41.5,23.6
				z"/>
			<path class="st1" d="M53.8,25.7c0,1.1-0.5,1.9-1.6,2.4c-0.8,0.4-1.8,0.6-3,0.6S47,28.5,46,28.1c0-0.2,0-0.3,0-0.4
				c0-0.2,0-0.3,0.1-0.5c0.1-0.2,0.2-0.3,0.4-0.3c0.2,0,0.4,0,0.6,0.1c0-0.4,0-0.7,0-1c0-0.3,0-0.4,0-0.6v-3
				c-0.1-0.7-0.1-1.3-0.2-1.8c0-0.5-0.1-0.9-0.1-1.2l-0.7,0.1c-0.5-0.2-0.7-0.4-0.7-0.7c0-0.5,0.5-0.8,1.5-0.8
				c1.5,0,2.8,0.2,3.8,0.6c1.5,0.6,2.2,1.5,2.2,2.8c0,0.7-0.4,1.3-1.1,1.8C53.2,23.9,53.8,24.7,53.8,25.7z M51.7,21.4
				c0-0.6-0.4-1.1-1.3-1.5c-0.6-0.2-1.3-0.4-2.1-0.4c0,0.7,0,1.7,0,3c0.1,0,0.2-0.1,0.3-0.1c0.1,0,0.2,0,0.3,0c0.1,0,0.1,0,0.2,0
				c0.1,0,0.1,0,0.1,0c0.5,0,1-0.1,1.4-0.2C51.4,22.1,51.7,21.8,51.7,21.4z M52.3,25.7c0-0.5-0.3-0.8-1-1.2c-0.5-0.2-1-0.4-1.6-0.5
				c-0.1,0-0.3,0-0.5-0.1c-0.2,0-0.4-0.1-0.7-0.1c0,0.4,0,0.7,0,1c0,0.3,0,0.6,0,0.9c0,0.6,0,1.1-0.1,1.5c0.2,0,0.4,0,0.6,0
				C51.2,27.3,52.3,26.8,52.3,25.7z"/>
			<path class="st1" d="M62.8,18.9c0,0.2-0.1,0.3-0.2,0.5c-0.1,0.1-0.3,0.2-0.5,0.2c-0.4,0-1,0-1.8,0c-0.4,0-0.8,0-1.2,0
				c-0.4,0-0.8,0-1.2,0c0,0.8,0.1,1.8,0.1,3.1h1.3c0.1,0,0.2,0,0.4,0c0.2,0,0.3,0,0.5,0c0.2,0,0.4,0,0.5,0c0.2,0,0.3,0,0.4,0
				c0.2,0,0.4,0.1,0.5,0.2c0.1,0.1,0.2,0.3,0.2,0.5c0,0.5-0.4,0.8-1.3,0.8h-0.9c-0.2,0-0.4,0-0.7,0c-0.3,0-0.6,0-1,0v3.5
				c0.6,0,1.3,0,1.9-0.1c0.6,0,1.3,0,2,0c0.7,0,1,0.2,1,0.7c0,0.5-0.3,0.7-0.9,0.7c-0.2,0-0.5,0-0.9,0s-0.7,0-1.2,0
				c-0.5,0-0.9,0-1.2,0c-0.3,0-0.6,0-0.9,0c-0.2,0-0.4,0-0.6-0.1c-0.2,0-0.3-0.1-0.4-0.2c-0.1-0.1-0.2-0.2-0.2-0.4s-0.1-0.3-0.1-0.6
				c0-0.5,0-1.1,0-1.8c0-0.7,0-1.6,0-2.5s0-1.8,0-2.5c0-0.7,0-1.3,0-1.8s1.6-0.7,4.9-0.7C62.4,18.1,62.8,18.4,62.8,18.9z"/>
			<path class="st1" d="M78.2,23.5c0,1.4-0.5,2.7-1.4,3.7c-1,1-2.2,1.6-3.6,1.6c-0.4,0-0.9-0.1-1.4-0.3c-0.6-0.2-1-0.5-1-0.8
				c0-0.2,0.1-0.4,0.2-0.5c0.1-0.1,0.3-0.2,0.5-0.2c0.1,0,0.1,0,0.2,0c0-0.5,0-1.4,0-2.6s0-2.7,0-4.5h0c-0.4,0-0.6-0.2-0.6-0.5
				l0-0.1c0.2-0.5,0.5-0.8,0.9-1c0.3-0.1,0.8-0.2,1.4-0.2c1.4,0,2.6,0.6,3.5,1.7C77.8,20.8,78.2,22.1,78.2,23.5z M76.8,23.4
				c0-0.7-0.1-1.3-0.4-1.9c-0.3-0.7-0.7-1.2-1.2-1.5c-0.6-0.4-1.3-0.6-2.1-0.6c0,0.9,0,2,0,3.2c0,1.3,0,2.8,0,4.5h0.1
				c1,0,1.9-0.4,2.6-1.1C76.4,25.4,76.8,24.5,76.8,23.4z"/>
			<path class="st1" d="M88.2,21.2c0,1.2-0.9,2.1-2.7,2.9c0.1,0.2,0.2,0.4,0.4,0.6c0.2,0.3,0.3,0.6,0.6,0.9c0.1,0.2,0.3,0.4,0.4,0.6
				s0.3,0.4,0.4,0.6c0.4,0.6,0.6,1,0.6,1.2c0,0.1,0,0.2-0.1,0.3c0,0.1-0.1,0.2-0.2,0.2s-0.1,0.1-0.2,0.1c-0.1,0-0.2,0.1-0.3,0.1
				c-0.3,0-0.7-0.3-1.1-1c-0.1-0.3-0.3-0.5-0.4-0.7s-0.3-0.5-0.4-0.7c-0.1-0.2-0.3-0.4-0.4-0.7c-0.2-0.3-0.4-0.6-0.6-1
				c-0.5,0.1-1,0.2-1.5,0.2v2.9c0,0.7-0.2,1.1-0.7,1.1c-0.2,0-0.3-0.1-0.5-0.2c-0.1-0.1-0.2-0.3-0.2-0.5v-1.4c0-0.8,0-1.3,0-1.4
				c0-0.6,0-1.4,0-2.3c0-0.9,0-2,0-3.2h0c-0.4-0.3-0.6-0.6-0.6-0.8c0-0.2,0.3-0.4,1-0.6c0.6-0.1,1-0.2,1.3-0.2
				c1.3,0,2.4,0.2,3.3,0.6C87.6,19.2,88.2,20,88.2,21.2z M86.8,21.1c0-0.6-0.5-1.1-1.4-1.4c-0.6-0.2-1.4-0.3-2.2-0.3
				c-0.1,0-0.2,0-0.2,0c-0.1,0-0.1,0-0.2,0c0,0.8,0,2,0,3.8c0.4,0,0.8-0.1,1.2-0.2c0.4-0.1,0.8-0.2,1.2-0.4
				C86.3,22.3,86.8,21.7,86.8,21.1z"/>
			<path class="st1" d="M97.2,18.9c0,0.2-0.1,0.3-0.2,0.5c-0.1,0.1-0.3,0.2-0.5,0.2c-0.4,0-1,0-1.8,0c-0.4,0-0.8,0-1.2,0
				c-0.4,0-0.8,0-1.2,0c0,0.8,0.1,1.8,0.1,3.1h1.3c0.1,0,0.2,0,0.4,0c0.2,0,0.3,0,0.5,0c0.2,0,0.4,0,0.5,0c0.2,0,0.3,0,0.4,0
				c0.2,0,0.4,0.1,0.5,0.2c0.1,0.1,0.2,0.3,0.2,0.5c0,0.5-0.4,0.8-1.3,0.8H94c-0.2,0-0.4,0-0.7,0c-0.3,0-0.6,0-1,0v3.5
				c0.6,0,1.3,0,1.9-0.1c0.6,0,1.3,0,2,0c0.7,0,1,0.2,1,0.7c0,0.5-0.3,0.7-0.9,0.7c-0.2,0-0.5,0-0.9,0s-0.7,0-1.2,0
				c-0.5,0-0.9,0-1.2,0c-0.3,0-0.6,0-0.9,0c-0.2,0-0.4,0-0.6-0.1c-0.2,0-0.3-0.1-0.4-0.2c-0.1-0.1-0.2-0.2-0.2-0.4s-0.1-0.3-0.1-0.6
				c0-0.5,0-1.1,0-1.8c0-0.7,0-1.6,0-2.5s0-1.8,0-2.5c0-0.7,0-1.3,0-1.8s1.6-0.7,4.9-0.7C96.7,18.1,97.2,18.4,97.2,18.9z"/>
			<path class="st1" d="M107,28c0,0.1,0,0.2-0.1,0.3c0,0.1-0.1,0.2-0.2,0.2c-0.1,0.1-0.1,0.1-0.2,0.2s-0.2,0.1-0.3,0.1
				c-0.3,0-0.5-0.2-0.6-0.5c0-0.1-0.1-0.4-0.2-0.9c-0.1-0.4-0.2-1-0.4-1.9H105c-0.4,0-0.9,0-1.6,0.1c-0.4,0-0.7,0.1-1,0.1
				c-0.3,0-0.5,0-0.6,0c-0.1,0.3-0.3,0.7-0.4,1.2s-0.4,1-0.6,1.7c-0.3,0.1-0.5,0.1-0.7,0.1c-0.4,0-0.6-0.1-0.6-0.4
				c0-0.1,0.2-0.7,0.5-1.6c0.2-0.5,0.4-1.2,0.7-2c0.3-0.8,0.6-1.8,1-2.8c0.1-0.3,0.2-0.6,0.4-1c0.1-0.4,0.3-0.8,0.5-1.4
				c0.1-0.2,0.2-0.6,0.4-1c0.1-0.2,0.2-0.3,0.3-0.3c0.1,0,0.3-0.1,0.5-0.1c0.2,0,0.4,0.1,0.5,0.3c0.2,0.3,0.4,0.8,0.6,1.3
				c0.1,0.2,0.1,0.5,0.2,0.7c0.1,0.2,0.1,0.5,0.2,0.7c0.3,1,0.6,1.9,0.8,2.7s0.5,1.6,0.6,2.4C106.9,27.2,107,27.8,107,28z
				 M104.6,24.1c-0.2-0.6-0.3-1.1-0.5-1.7c-0.2-0.6-0.4-1.2-0.6-1.7c-0.1,0.2-0.2,0.7-0.4,1.3s-0.5,1.4-0.9,2.4
				C102.8,24.2,103.6,24.1,104.6,24.1z"/>
			<path class="st1" d="M118.1,28.4c-0.3,0.2-0.6,0.3-0.8,0.3c-0.4,0-0.6-0.4-0.6-1.2v-0.4c0-0.1,0-0.2,0-0.2s0-0.1,0-0.2v-4.1
				c-0.3,0.9-0.8,2.2-1.4,3.9c-0.3,0.8-0.4,1.2-0.4,1.3c-0.2,0.5-0.6,0.8-0.9,0.8c-0.4,0-0.7-0.4-1-1.2c-0.2-0.4-0.4-1-0.7-1.9
				c-0.3-0.8-0.7-1.9-1.2-3.1c0,0.8,0,1.4,0,1.9c0,0.5,0,0.8,0,0.9c0,0.5,0,1,0,1.6s0,1.1-0.1,1.6c-0.3,0.2-0.6,0.3-0.8,0.3
				c-0.3,0-0.5-0.2-0.5-0.7c0,0,0-0.1,0-0.1c0-0.1,0-0.1,0-0.2s0-0.1,0-0.2c0-0.1,0-0.1,0-0.1c0-0.4,0-1,0-1.6c0-0.6,0-1.4,0-2.3
				c0-0.9,0-1.6,0-2.3c0-0.6,0-1.2,0-1.6c0-1,0.3-1.5,0.8-1.5c0.2,0,0.3,0.1,0.5,0.2c0.2,0.1,0.2,0.3,0.2,0.4
				c0.1,0.3,0.3,0.8,0.6,1.5c0.3,0.7,0.7,1.7,1.1,2.9c0.1,0.2,0.2,0.5,0.4,1s0.5,1.2,0.8,2l1.9-5.4c0.1-0.2,0.1-0.4,0.2-0.6
				s0.1-0.4,0.2-0.6c0.2-0.7,0.4-1.1,0.5-1.1c0.2-0.2,0.4-0.3,0.5-0.3c0.5,0,0.7,0.4,0.7,1.1V28.4z"/>
			<path class="st1" d="M131.5,18.8c0,0.3-0.2,1.2-0.5,2.7s-0.8,3.6-1.4,6.2c-0.2,0.7-0.4,1-0.8,1c-0.4,0-0.7-0.4-1-1.2
				c0-0.1-0.1-0.2-0.1-0.3c0-0.1-0.1-0.3-0.1-0.4c-0.2-0.5-0.4-1.2-0.6-2s-0.5-1.8-0.8-2.8c-0.5,2.5-1,4.5-1.4,6
				c0,0.1-0.1,0.2-0.1,0.4c-0.2,0.3-0.5,0.5-0.8,0.5c-0.3,0-0.5-0.1-0.6-0.4c-0.1-0.2-0.2-0.7-0.4-1.6c-0.2-0.9-0.4-2.1-0.8-3.4
				c-0.3-1.3-0.8-2.8-1.3-4.5c0.3-0.4,0.6-0.6,0.8-0.6c0.2,0,0.4,0.2,0.5,0.5c0,0,0.1,0.1,0.1,0.2c0,0.1,0.1,0.3,0.2,0.5
				c0.3,1,0.6,2,0.9,3c0.3,1,0.5,2,0.7,3c0.3-1,0.5-2,0.7-2.9c0.2-0.9,0.3-1.7,0.4-2.4c0-0.3,0.1-0.5,0.1-0.8c0-0.3,0.1-0.5,0.2-0.7
				c0.1-0.3,0.3-0.5,0.6-0.5c0.5,0,0.9,0.5,1.1,1.6c0.2,0.8,0.4,1.7,0.7,2.7c0.3,1,0.6,2,0.9,3.2c0.1-0.5,0.2-1.1,0.4-1.8
				c0.1-0.7,0.3-1.6,0.5-2.5c0-0.2,0.1-0.4,0.2-0.7s0.1-0.6,0.2-1c0.1-0.4,0.1-0.7,0.2-0.8c0.1-0.3,0.3-0.5,0.6-0.5
				c0.1,0,0.2,0,0.3,0.1c0.1,0,0.2,0.1,0.2,0.1c0.1,0.1,0.1,0.1,0.2,0.2C131.5,18.6,131.5,18.7,131.5,18.8z"/>
			<path class="st1" d="M140.4,18.9c0,0.2-0.1,0.3-0.2,0.5c-0.1,0.1-0.3,0.2-0.5,0.2c-0.4,0-1,0-1.8,0c-0.4,0-0.8,0-1.2,0
				c-0.4,0-0.8,0-1.2,0c0,0.8,0.1,1.8,0.1,3.1h1.3c0.1,0,0.2,0,0.4,0c0.2,0,0.3,0,0.5,0c0.2,0,0.4,0,0.5,0c0.2,0,0.3,0,0.4,0
				c0.2,0,0.4,0.1,0.5,0.2c0.1,0.1,0.2,0.3,0.2,0.5c0,0.5-0.4,0.8-1.3,0.8h-0.9c-0.2,0-0.4,0-0.7,0c-0.3,0-0.6,0-1,0v3.5
				c0.6,0,1.3,0,1.9-0.1c0.6,0,1.3,0,2,0c0.7,0,1,0.2,1,0.7c0,0.5-0.3,0.7-0.9,0.7c-0.2,0-0.5,0-0.9,0s-0.7,0-1.2,0
				c-0.5,0-0.9,0-1.2,0c-0.3,0-0.6,0-0.9,0c-0.2,0-0.4,0-0.6-0.1c-0.2,0-0.3-0.1-0.4-0.2c-0.1-0.1-0.2-0.2-0.2-0.4s-0.1-0.3-0.1-0.6
				c0-0.5,0-1.1,0-1.8c0-0.7,0-1.6,0-2.5s0-1.8,0-2.5c0-0.7,0-1.3,0-1.8s1.6-0.7,4.9-0.7C140,18.1,140.4,18.4,140.4,18.9z"/>
			<path class="st1" d="M150.3,28c0,0.1,0,0.2-0.1,0.3c0,0.1-0.1,0.2-0.2,0.2c-0.1,0.1-0.1,0.1-0.2,0.2s-0.2,0.1-0.3,0.1
				c-0.3,0-0.5-0.2-0.6-0.5c0-0.1-0.1-0.4-0.2-0.9c-0.1-0.4-0.2-1-0.4-1.9h-0.1c-0.4,0-0.9,0-1.6,0.1c-0.4,0-0.7,0.1-1,0.1
				c-0.3,0-0.5,0-0.6,0c-0.1,0.3-0.3,0.7-0.4,1.2s-0.4,1-0.6,1.7c-0.3,0.1-0.5,0.1-0.7,0.1c-0.4,0-0.6-0.1-0.6-0.4
				c0-0.1,0.2-0.7,0.5-1.6c0.2-0.5,0.4-1.2,0.7-2c0.3-0.8,0.6-1.8,1-2.8c0.1-0.3,0.2-0.6,0.4-1c0.1-0.4,0.3-0.8,0.5-1.4
				c0.1-0.2,0.2-0.6,0.4-1c0.1-0.2,0.2-0.3,0.3-0.3c0.1,0,0.3-0.1,0.5-0.1c0.2,0,0.4,0.1,0.5,0.3c0.2,0.3,0.4,0.8,0.6,1.3
				c0.1,0.2,0.1,0.5,0.2,0.7c0.1,0.2,0.1,0.5,0.2,0.7c0.3,1,0.6,1.9,0.8,2.7s0.5,1.6,0.6,2.4C150.1,27.2,150.3,27.8,150.3,28z
				 M147.9,24.1c-0.2-0.6-0.3-1.1-0.5-1.7c-0.2-0.6-0.4-1.2-0.6-1.7c-0.1,0.2-0.2,0.7-0.4,1.3s-0.5,1.4-0.9,2.4
				C146,24.2,146.8,24.1,147.9,24.1z"/>
			<path class="st1" d="M159.5,18.9c0,0,0,0.1,0,0.1c-0.1,0.3-0.1,0.6-0.2,1c-0.1,0.4-0.2,0.9-0.4,1.4c-0.2,0.6-0.4,1.3-0.6,2.1
				c-0.2,0.8-0.5,1.8-0.8,2.9c-0.1,0.3-0.2,0.6-0.2,0.8c-0.1,0.2-0.1,0.4-0.2,0.5c-0.3,0.6-0.6,0.9-1,0.9c-0.3,0-0.5-0.1-0.6-0.4
				c0-0.1-0.1-0.1-0.1-0.3c-0.1-0.1-0.1-0.3-0.2-0.4c-0.1-0.2-0.2-0.5-0.3-0.9c-0.1-0.3-0.3-0.7-0.4-1.2c-0.3-0.8-0.5-1.8-0.8-3
				c-0.3-1.1-0.6-2.4-1-3.9c0.3-0.4,0.6-0.6,0.9-0.6c0.2,0,0.3,0.1,0.4,0.3c0.2,0.3,0.3,0.8,0.4,1.3c0.1,0.2,0.1,0.5,0.2,0.7
				c0.1,0.2,0.1,0.5,0.2,0.7c0.5,1.9,1,3.5,1.4,4.8c0.1-0.3,0.2-0.6,0.3-1s0.2-0.8,0.4-1.4c0.1-0.4,0.2-0.9,0.4-1.4
				c0.2-0.6,0.3-1.2,0.5-1.9c0.1-0.2,0.1-0.5,0.2-0.7c0.1-0.2,0.1-0.5,0.1-0.7c0.1-0.5,0.3-0.8,0.7-0.8c0.2,0,0.4,0.1,0.5,0.2
				C159.4,18.5,159.5,18.7,159.5,18.9z"/>
			<path class="st1" d="M168.4,18.9c0,0.2-0.1,0.3-0.2,0.5c-0.1,0.1-0.3,0.2-0.5,0.2c-0.4,0-1,0-1.8,0c-0.4,0-0.8,0-1.2,0
				c-0.4,0-0.8,0-1.2,0c0,0.8,0.1,1.8,0.1,3.1h1.3c0.1,0,0.2,0,0.4,0c0.2,0,0.3,0,0.5,0c0.2,0,0.4,0,0.5,0c0.2,0,0.3,0,0.4,0
				c0.2,0,0.4,0.1,0.5,0.2c0.1,0.1,0.2,0.3,0.2,0.5c0,0.5-0.4,0.8-1.3,0.8h-0.9c-0.2,0-0.4,0-0.7,0c-0.3,0-0.6,0-1,0v3.5
				c0.6,0,1.3,0,1.9-0.1c0.6,0,1.3,0,2,0c0.7,0,1,0.2,1,0.7c0,0.5-0.3,0.7-0.9,0.7c-0.2,0-0.5,0-0.9,0s-0.7,0-1.2,0
				c-0.5,0-0.9,0-1.2,0c-0.3,0-0.6,0-0.9,0c-0.2,0-0.4,0-0.6-0.1c-0.2,0-0.3-0.1-0.4-0.2c-0.1-0.1-0.2-0.2-0.2-0.4s-0.1-0.3-0.1-0.6
				c0-0.5,0-1.1,0-1.8c0-0.7,0-1.6,0-2.5s0-1.8,0-2.5c0-0.7,0-1.3,0-1.8s1.6-0.7,4.9-0.7C168,18.1,168.4,18.4,168.4,18.9z"/>
			<path class="st1" d="M178.4,21.2c0,1.2-0.9,2.1-2.7,2.9c0.1,0.2,0.2,0.4,0.4,0.6c0.2,0.3,0.3,0.6,0.6,0.9
				c0.1,0.2,0.3,0.4,0.4,0.6s0.3,0.4,0.4,0.6c0.4,0.6,0.6,1,0.6,1.2c0,0.1,0,0.2-0.1,0.3c0,0.1-0.1,0.2-0.2,0.2s-0.1,0.1-0.2,0.1
				c-0.1,0-0.2,0.1-0.3,0.1c-0.3,0-0.7-0.3-1.1-1c-0.1-0.3-0.3-0.5-0.4-0.7s-0.3-0.5-0.4-0.7c-0.1-0.2-0.3-0.4-0.4-0.7
				c-0.2-0.3-0.4-0.6-0.6-1c-0.5,0.1-1,0.2-1.5,0.2v2.9c0,0.7-0.2,1.1-0.7,1.1c-0.2,0-0.3-0.1-0.5-0.2c-0.1-0.1-0.2-0.3-0.2-0.5
				v-1.4c0-0.8,0-1.3,0-1.4c0-0.6,0-1.4,0-2.3c0-0.9,0-2,0-3.2h0c-0.4-0.3-0.6-0.6-0.6-0.8c0-0.2,0.3-0.4,1-0.6
				c0.6-0.1,1-0.2,1.3-0.2c1.3,0,2.4,0.2,3.3,0.6C177.8,19.2,178.4,20,178.4,21.2z M177,21.1c0-0.6-0.5-1.1-1.4-1.4
				c-0.6-0.2-1.4-0.3-2.2-0.3c-0.1,0-0.2,0-0.2,0c-0.1,0-0.1,0-0.2,0c0,0.8,0,2,0,3.8c0.4,0,0.8-0.1,1.2-0.2
				c0.4-0.1,0.8-0.2,1.2-0.4C176.4,22.3,177,21.7,177,21.1z"/>
		</g>
	</g>
	<path class="st2" d="M204.5,36.2c4-2.9,8.6-5.6,12.5-8.9c1.2-0.9,2.4-1.7,3.6-2.6c0.3-0.2,0.5-0.5,0.5-0.8c0.5,0.6,1.1,1.1,1.8,1.6
		c3.9,2.8,10.2,1.7,12.5-2.7c0.3-0.7-0.2-1.2-0.8-1.3c2-3.9,0.7-9.3-3.2-11.7c-4.4-2.7-11.3-0.1-12.9,4.8c-0.8,2.6-0.1,5.5,1.3,7.8
		c-0.3,0-0.6,0-0.8,0.2c-1.2,0.9-2.4,1.7-3.7,2.6c-4.4,2.6-8.4,6.1-12.5,8.9c-0.7,0.5-0.6,1.3-0.3,1.8
		C203.1,36.4,203.9,36.7,204.5,36.2z M220.3,16.8c-0.2-4.3,4.4-6.6,8.2-6.4c6.3,0.3,6.6,7.3,4.6,11.8c-2.7,1.8-4.7,3.6-8.3,1.8
		C222.1,22.7,220.4,19.7,220.3,16.8z"/>
</g>
</svg>
