<?xml version="1.0" encoding="utf-8"?>
<!-- Generator: Adobe Illustrator 22.1.0, SVG Export Plug-In . SVG Version: 6.00 Build 0)  -->
<svg version="1.1" id="Capa_1" xmlns="http://www.w3.org/2000/svg" xmlns:xlink="http://www.w3.org/1999/xlink" x="0px" y="0px"
	 viewBox="0 0 246.7 45.1" style="enable-background:new 0 0 246.7 45.1;" xml:space="preserve">
<style type="text/css">
	.st0{fill:#FFFFFF;}
	.st1{fill:#EC7522;}
	.st2{fill:#232923;}
</style>
<g>
	<rect y="2.7" class="st0" width="245" height="39"/>
	<rect x="193" y="2.7" class="st1" width="52" height="39"/>
	<path class="st2" d="M240.8,3.8c1.3,0,2.3,1,2.3,2.3l1.3,31.1c0,0.4-0.1,1.3,1.1,1.4c0.4,0,0.4-0.3,0.4-0.7V3.1
		c0-1.6-0.9-2.9-2.5-2.9c-24.3,0-193-0.3-214.8-0.2C10.4,0.1,2.7-0.1,1.5,1.1C-0.2,4,1.1,30.7,1.6,43.2c-0.9,0.2-0.7,0.9-0.4,1.4
		C1.5,45.3,4.4,45,5.4,45c1.3,0,193.3-0.2,239.9-1c0.8,0,1.4-0.6,1.4-1.4c0-0.8-0.6-1.4-1.4-1.4c-6.2-0.1-13.4-0.2-16.9-0.2
		c-1.7,0-14.5,0.1-33.1,0.2c0-6.1,0-12.2,0-18.4c0-6.2,0.7-12.9-0.2-19.1C213.3,3.8,229.4,3.8,240.8,3.8z M3.8,42.8
		C3.7,42.8,4,31.9,4,26.2c0-4.6,0-17.9-0.4-22.5c3-0.1,6-0.2,9-0.2c10.4,0.4,20.9,0.2,31.2,0.3c9.3,0.1,88.8,0,148.6,0
		c-0.8,5.5-1.3,11.3-1.3,16.8c0,3.2,0,6.5,0,9.7c0,3.6,0,7.3,0,10.9c-60,0.3-172.5,1-177.9,1.2C9.7,42.6,7.3,42.5,3.8,42.8z"/>
	<g>
		<g>
			<path class="st1" d="M34.5,26.2c0,1.1-0.5,1.9-1.6,2.4c-0.8,0.4-1.8,0.6-3,0.6s-2.2-0.2-3.2-0.6c0-0.2,0-0.3,0-0.4
				c0-0.2,0-0.3,0.1-0.5c0.1-0.2,0.2-0.3,0.4-0.3c0.2,0,0.4,0,0.6,0.1c0-0.4,0-0.7,0-1c0-0.3,0-0.4,0-0.6v-3
				c-0.1-0.7-0.1-1.3-0.2-1.8c0-0.5-0.1-0.9-0.1-1.2L26.9,20c-0.5-0.2-0.7-0.4-0.7-0.7c0-0.5,0.5-0.8,1.5-0.8c1.5,0,2.8,0.2,3.8,0.6
				c1.5,0.6,2.2,1.5,2.2,2.8c0,0.7-0.4,1.3-1.1,1.8C33.9,24.3,34.5,25.1,34.5,26.2z M32.4,21.9c0-0.6-0.4-1.1-1.3-1.5
				C30.5,20.2,29.8,20,29,20c0,0.7,0,1.7,0,3c0.1,0,0.2-0.1,0.3-0.1c0.1,0,0.2,0,0.3,0c0.1,0,0.1,0,0.2,0c0.1,0,0.1,0,0.1,0
				c0.5,0,1-0.1,1.4-0.2C32,22.6,32.4,22.3,32.4,21.9z M33,26.2c0-0.5-0.3-0.8-1-1.2c-0.5-0.2-1-0.4-1.6-0.5c-0.1,0-0.3,0-0.5-0.1
				c-0.2,0-0.4-0.1-0.7-0.1c0,0.4,0,0.7,0,1c0,0.3,0,0.6,0,0.9c0,0.6,0,1.1-0.1,1.5c0.2,0,0.4,0,0.6,0C31.9,27.8,33,27.2,33,26.2z"
				/>
			<path class="st1" d="M44.4,28.5c0,0.1,0,0.2-0.1,0.3c0,0.1-0.1,0.2-0.2,0.2c-0.1,0.1-0.1,0.1-0.2,0.2s-0.2,0.1-0.3,0.1
				c-0.3,0-0.5-0.2-0.6-0.5c0-0.1-0.1-0.4-0.2-0.9c-0.1-0.4-0.2-1-0.4-1.9h-0.1c-0.4,0-0.9,0-1.6,0.1c-0.4,0-0.7,0.1-1,0.1
				c-0.3,0-0.5,0-0.6,0c-0.1,0.3-0.3,0.7-0.4,1.2s-0.4,1-0.6,1.7c-0.3,0.1-0.5,0.1-0.7,0.1c-0.4,0-0.6-0.1-0.6-0.4
				c0-0.1,0.2-0.7,0.5-1.6c0.2-0.5,0.4-1.2,0.7-2c0.3-0.8,0.6-1.8,1-2.8c0.1-0.3,0.2-0.6,0.4-1c0.1-0.4,0.3-0.8,0.5-1.4
				c0.1-0.2,0.2-0.6,0.4-1c0.1-0.2,0.2-0.3,0.3-0.3c0.1,0,0.3-0.1,0.5-0.1c0.2,0,0.4,0.1,0.5,0.3c0.2,0.3,0.4,0.8,0.6,1.3
				c0.1,0.2,0.1,0.5,0.2,0.7c0.1,0.2,0.1,0.5,0.2,0.7c0.3,1,0.6,1.9,0.8,2.7s0.5,1.6,0.6,2.4C44.2,27.6,44.4,28.2,44.4,28.5z
				 M42,24.5c-0.2-0.6-0.3-1.1-0.5-1.7c-0.2-0.6-0.4-1.2-0.6-1.7c-0.1,0.2-0.2,0.7-0.4,1.3s-0.5,1.4-0.9,2.4
				C40.1,24.6,40.9,24.6,42,24.5z"/>
			<path class="st1" d="M53.2,28.4c0,0.4-0.3,0.7-0.8,0.7c-0.4,0-0.9,0-1.6,0c-0.4,0-0.7,0-0.9,0c-0.3,0-0.5,0-0.6,0
				c-0.9,0-1.5,0-1.7-0.1c-0.3-0.1-0.5-0.9-0.5-2.1c0-0.8,0-2.1-0.1-3.7c0-0.8,0-1.6,0-2.2s0-1.1,0-1.6c0-0.6,0.2-0.9,0.7-0.9
				c0.5,0,0.7,0.4,0.7,1.2c0,0,0,0.1,0,0.2c0,0.1,0,0.1,0,0.2c0,0.1,0,0.2,0,0.2c0,0.1,0,0.1,0,0.2c0,0.3,0,0.8,0,1.3
				c0,0.5,0,1.1,0,1.8c0,1.4,0,2.4,0,3v1.2h1c0.2,0,0.3,0,0.6,0s0.5,0,0.8,0c0.3,0,0.6,0,0.8,0s0.4,0,0.6,0
				C52.9,27.7,53.2,28,53.2,28.4z"/>
			<path class="st1" d="M62,26.2c0,0.8-0.3,1.6-0.9,2.1c-0.6,0.6-1.3,0.8-2.1,0.8c-0.8,0-1.6-0.2-2.2-0.7c-0.7-0.5-1.1-1.1-1.4-1.9
				c0-0.1,0-0.2,0-0.2c0-0.1,0-0.2,0.1-0.3c0-0.1,0.1-0.2,0.2-0.2c0.1-0.1,0.1-0.1,0.2-0.1s0.2-0.1,0.3-0.1c0.2,0,0.4,0.1,0.6,0.3
				c0.1,0.2,0.2,0.4,0.3,0.6c0.2,0.3,0.5,0.6,0.8,0.8c0.4,0.2,0.8,0.3,1.2,0.3c0.2,0,0.4,0,0.6-0.1c0.2-0.1,0.3-0.2,0.5-0.3
				c0.1-0.1,0.2-0.3,0.3-0.5c0.1-0.2,0.1-0.4,0.1-0.6c0-0.4-0.2-0.7-0.5-1c-0.1-0.1-0.2-0.1-0.4-0.2c-0.2-0.1-0.4-0.2-0.6-0.3
				c-1-0.5-1.7-1-2.2-1.4c-0.8-0.7-1.2-1.4-1.2-2.1c0-0.7,0.3-1.3,0.8-1.8c0.6-0.5,1.2-0.8,1.9-0.8c0.7,0,1.3,0.2,1.8,0.6
				c0.5,0.4,0.9,0.9,1.1,1.6c-0.3,0.4-0.6,0.5-0.8,0.5c-0.1,0-0.3-0.1-0.5-0.3c-0.1-0.2-0.2-0.3-0.3-0.4c-0.1-0.1-0.2-0.2-0.2-0.2
				c-0.3-0.2-0.6-0.3-1-0.3c-0.3,0-0.6,0.1-0.9,0.4c-0.3,0.2-0.5,0.5-0.5,0.8c0,0.4,0.4,0.9,1.2,1.4c0.6,0.3,1.2,0.6,1.7,0.9
				c0.6,0.4,1.1,0.7,1.4,1.1C61.8,25,62,25.6,62,26.2z"/>
			<path class="st1" d="M71.9,28.5c0,0.1,0,0.2-0.1,0.3c0,0.1-0.1,0.2-0.2,0.2c-0.1,0.1-0.1,0.1-0.2,0.2s-0.2,0.1-0.3,0.1
				c-0.3,0-0.5-0.2-0.6-0.5c0-0.1-0.1-0.4-0.2-0.9c-0.1-0.4-0.2-1-0.4-1.9h-0.1c-0.4,0-0.9,0-1.6,0.1c-0.4,0-0.7,0.1-1,0.1
				c-0.3,0-0.5,0-0.6,0c-0.1,0.3-0.3,0.7-0.4,1.2s-0.4,1-0.6,1.7c-0.3,0.1-0.5,0.1-0.7,0.1c-0.4,0-0.6-0.1-0.6-0.4
				c0-0.1,0.2-0.7,0.5-1.6c0.2-0.5,0.4-1.2,0.7-2c0.3-0.8,0.6-1.8,1-2.8c0.1-0.3,0.2-0.6,0.4-1c0.1-0.4,0.3-0.8,0.5-1.4
				c0.1-0.2,0.2-0.6,0.4-1c0.1-0.2,0.2-0.3,0.3-0.3c0.1,0,0.3-0.1,0.5-0.1c0.2,0,0.4,0.1,0.5,0.3c0.2,0.3,0.4,0.8,0.6,1.3
				c0.1,0.2,0.1,0.5,0.2,0.7c0.1,0.2,0.1,0.5,0.2,0.7c0.3,1,0.6,1.9,0.8,2.7s0.5,1.6,0.6,2.4C71.7,27.6,71.9,28.2,71.9,28.5z
				 M69.5,24.5c-0.2-0.6-0.3-1.1-0.5-1.7c-0.2-0.6-0.4-1.2-0.6-1.7c-0.1,0.2-0.2,0.7-0.4,1.3s-0.5,1.4-0.9,2.4
				C67.7,24.6,68.4,24.6,69.5,24.5z"/>
			<path class="st1" d="M83,28.8c-0.3,0.2-0.6,0.3-0.8,0.3c-0.4,0-0.6-0.4-0.6-1.2v-0.4c0-0.1,0-0.2,0-0.2s0-0.1,0-0.2v-4.1
				c-0.3,0.9-0.8,2.2-1.4,3.9c-0.3,0.8-0.4,1.2-0.4,1.3c-0.2,0.5-0.6,0.8-0.9,0.8c-0.4,0-0.7-0.4-1-1.2c-0.2-0.4-0.4-1-0.7-1.9
				c-0.3-0.8-0.7-1.9-1.2-3.1c0,0.8,0,1.4,0,1.9c0,0.5,0,0.8,0,0.9c0,0.5,0,1,0,1.6s0,1.1-0.1,1.6c-0.3,0.2-0.6,0.3-0.8,0.3
				c-0.3,0-0.5-0.2-0.5-0.7c0,0,0-0.1,0-0.1c0-0.1,0-0.1,0-0.2s0-0.1,0-0.2c0-0.1,0-0.1,0-0.1c0-0.4,0-1,0-1.6c0-0.6,0-1.4,0-2.3
				c0-0.9,0-1.6,0-2.3c0-0.6,0-1.2,0-1.6c0-1,0.3-1.5,0.8-1.5c0.2,0,0.3,0.1,0.5,0.2c0.2,0.1,0.2,0.3,0.2,0.4
				c0.1,0.3,0.3,0.8,0.6,1.5c0.3,0.7,0.7,1.7,1.1,2.9c0.1,0.2,0.2,0.5,0.4,1s0.5,1.2,0.8,2l1.9-5.4c0.1-0.2,0.1-0.4,0.2-0.6
				s0.1-0.4,0.2-0.6c0.2-0.7,0.4-1.1,0.5-1.1c0.2-0.2,0.4-0.3,0.5-0.3c0.5,0,0.7,0.4,0.7,1.1V28.8z"/>
			<path class="st1" d="M87.3,28.4c0,0.2-0.1,0.4-0.2,0.5s-0.3,0.2-0.5,0.2c-0.2,0-0.4-0.1-0.5-0.2s-0.2-0.3-0.2-0.5v-7.2
				c0-0.1,0-0.4,0-0.8c0-0.3,0-0.6,0-0.8c0-0.7,0.2-1.1,0.7-1.1c0.4,0,0.6,0.2,0.7,0.6c0,0.2,0.1,0.5,0.1,1c0,0.3,0,0.7,0,1.2
				c0,0.5,0,1.1,0,1.7c0,1.3,0,2.3,0,3V28.4z"/>
			<path class="st1" d="M97.6,24c0,1.9-0.5,3.3-1.6,4.3c0.4,0.8,0.5,1.3,0.5,1.4c0,0.1,0,0.2-0.1,0.3s-0.1,0.2-0.2,0.2
				c-0.1,0.1-0.1,0.1-0.2,0.1c-0.1,0-0.2,0.1-0.3,0.1c-0.2,0-0.4-0.1-0.5-0.3c0-0.1-0.1-0.2-0.3-0.5c0-0.1-0.1-0.2-0.1-0.3
				c0-0.1-0.1-0.2-0.1-0.3c-0.3,0.1-0.6,0.1-1,0.1c-1.2,0-2.2-0.5-2.9-1.4c-0.6-0.8-0.9-1.9-0.9-3.2c0-1.4,0.3-2.7,0.9-3.8
				c0.7-1.4,1.7-2.2,3-2.2c1.2,0,2.2,0.6,2.9,1.9C97.3,21.5,97.6,22.7,97.6,24z M96.1,23.9c0-0.9-0.2-1.7-0.5-2.5
				c-0.4-1-1-1.5-1.8-1.5c-0.9,0-1.5,0.6-2,1.7c-0.3,0.8-0.5,1.8-0.5,2.8c0,0.9,0.2,1.7,0.5,2.2c0.4,0.7,1.1,1,2.1,1
				c0,0,0.1,0,0.1,0c0,0,0.1,0,0.1,0c-0.1-0.3-0.3-0.6-0.4-0.8s-0.3-0.5-0.4-0.8c0.2-0.5,0.5-0.8,0.8-0.8c0.2,0,0.6,0.5,1.2,1.6
				C95.8,26.2,96.1,25.2,96.1,23.9z"/>
			<path class="st1" d="M114.2,28.8c-0.3,0.2-0.6,0.3-0.8,0.3c-0.4,0-0.6-0.4-0.6-1.2v-0.4c0-0.1,0-0.2,0-0.2s0-0.1,0-0.2v-4.1
				c-0.3,0.9-0.8,2.2-1.4,3.9c-0.3,0.8-0.4,1.2-0.4,1.3c-0.2,0.5-0.6,0.8-0.9,0.8c-0.4,0-0.7-0.4-1-1.2c-0.2-0.4-0.4-1-0.7-1.9
				c-0.3-0.8-0.7-1.9-1.2-3.1c0,0.8,0,1.4,0,1.9c0,0.5,0,0.8,0,0.9c0,0.5,0,1,0,1.6s0,1.1-0.1,1.6c-0.3,0.2-0.6,0.3-0.8,0.3
				c-0.3,0-0.5-0.2-0.5-0.7c0,0,0-0.1,0-0.1c0-0.1,0-0.1,0-0.2s0-0.1,0-0.2c0-0.1,0-0.1,0-0.1c0-0.4,0-1,0-1.6c0-0.6,0-1.4,0-2.3
				c0-0.9,0-1.6,0-2.3c0-0.6,0-1.2,0-1.6c0-1,0.3-1.5,0.8-1.5c0.2,0,0.3,0.1,0.5,0.2c0.2,0.1,0.2,0.3,0.2,0.4
				c0.1,0.3,0.3,0.8,0.6,1.5c0.3,0.7,0.7,1.7,1.1,2.9c0.1,0.2,0.2,0.5,0.4,1s0.5,1.2,0.8,2l1.9-5.4c0.1-0.2,0.1-0.4,0.2-0.6
				s0.1-0.4,0.2-0.6c0.2-0.7,0.4-1.1,0.5-1.1c0.2-0.2,0.4-0.3,0.5-0.3c0.5,0,0.7,0.4,0.7,1.1V28.8z"/>
			<path class="st1" d="M124.5,24c0,1.3-0.3,2.5-0.9,3.4c-0.7,1.1-1.7,1.7-2.9,1.7c-1.2,0-2.2-0.5-2.9-1.4c-0.6-0.8-0.9-1.9-0.9-3.2
				c0-1.4,0.3-2.7,0.9-3.9c0.7-1.4,1.7-2.1,3-2.1c1.2,0,2.2,0.6,2.9,1.9C124.2,21.5,124.5,22.7,124.5,24z M123,24.1
				c0-0.8-0.1-1.5-0.3-2.2c-0.3-0.9-0.7-1.4-1.3-1.7c-0.2-0.1-0.4-0.2-0.5-0.2c-0.3,0-0.6,0.1-0.9,0.3c-0.6,0.3-1.1,0.9-1.3,1.9
				c-0.2,0.7-0.3,1.5-0.3,2.4c0,2.2,0.9,3.3,2.6,3.3c0.7,0,1.3-0.5,1.7-1.4C122.9,25.7,123,24.9,123,24.1z"/>
			<path class="st1" d="M133.9,26.9c0,0.1-0.1,0.3-0.2,0.6c-0.5,1.1-1.4,1.6-2.8,1.6c-1.3,0-2.2-0.5-2.9-1.4
				c-0.6-0.8-0.9-1.9-0.9-3.2c0-1.4,0.3-2.7,1-4c0.8-1.4,1.9-2.1,3.2-2.1c1,0,1.8,0.6,2.3,1.8c0,0,0,0.1,0,0.2
				c0,0.2-0.1,0.4-0.2,0.5c-0.1,0.1-0.3,0.2-0.5,0.2c-0.3,0-0.5-0.2-0.8-0.6c-0.2-0.4-0.5-0.6-0.8-0.6c-0.9,0-1.6,0.6-2.1,1.8
				c-0.4,1-0.7,1.9-0.7,2.9c0,0.9,0.2,1.6,0.5,2.1c0.4,0.6,1,1,1.9,1c0.9,0,1.5-0.4,1.8-1.2c0.2-0.1,0.5-0.1,0.6-0.1
				C133.7,26.4,133.9,26.6,133.9,26.9z"/>
			<path class="st1" d="M142.8,28.4c0,0.2-0.1,0.4-0.2,0.5c-0.1,0.1-0.3,0.2-0.5,0.2c-0.2,0-0.4-0.1-0.6-0.4c0,0-0.1-0.1-0.2-0.2
				s-0.2-0.2-0.3-0.4c-0.2-0.3-0.4-0.6-0.6-0.9c-0.2-0.3-0.4-0.6-0.7-0.9c-0.2-0.2-0.4-0.4-0.6-0.7s-0.5-0.7-0.8-1.1
				c-0.2,0.2-0.3,0.4-0.5,0.5c0,0.4,0,0.7,0,1c0,0.3,0,0.6,0,0.9c0,0.8,0,1.4,0,1.8c-0.3,0.2-0.6,0.3-0.8,0.3c-0.3,0-0.5-0.3-0.5-1
				v-0.4c0-0.1,0-0.2,0-0.2s0-0.1,0-0.2c0-0.9,0-2.2,0-4c0-1.8,0-3.1,0-4c0-0.6,0.2-1,0.7-1c0.2,0,0.3,0.1,0.5,0.2
				c0.1,0.1,0.2,1.6,0.2,4.3c0.4-0.4,0.8-1,1.3-1.6s1.1-1.4,1.9-2.3c0.3-0.4,0.6-0.6,0.8-0.6c0.1,0,0.2,0,0.3,0.1
				c0.1,0,0.2,0.1,0.2,0.2c0.1,0.1,0.1,0.1,0.1,0.2s0.1,0.2,0.1,0.3c0,0.2-0.1,0.4-0.3,0.7c-0.1,0.1-0.2,0.2-0.3,0.3
				c-0.1,0.1-0.2,0.2-0.3,0.3c0,0.1-0.3,0.3-0.7,0.8c-0.4,0.5-1,1.2-1.7,2.1c0.4,0.4,0.9,1.1,1.5,1.9c0.7,1,1.2,1.6,1.4,1.9
				c0.1,0.2,0.3,0.4,0.5,0.5C142.8,28.1,142.8,28.3,142.8,28.4z"/>
			<path class="st1" d="M152.5,21.3c0,5.3-1.3,7.9-3.9,7.9c-2.1,0-3.1-1.8-3.1-5.4c0-0.3,0-0.7,0-1.1c0-0.4,0-0.8,0.1-1.3
				c0.1-0.7,0.1-1.2,0.1-1.6s0-0.7,0-0.8c0.3-0.2,0.6-0.3,0.8-0.3c0.3,0,0.4,0.2,0.4,0.5c0,0.5,0,1.3-0.1,2.4c0,0.5,0,1,0,1.4
				s0,0.7,0,1c0,2.6,0.6,3.9,1.7,3.9c1.6,0,2.4-2,2.4-5.9c0-0.3,0-0.7,0-1.3c0-0.6,0-1,0-1.3c0-0.2,0.1-0.4,0.2-0.5
				c0.1-0.1,0.3-0.2,0.5-0.2c0.4,0,0.6,0.2,0.7,0.6c0.1,0.2,0.1,0.5,0.1,1.1c0,0.2,0,0.3,0,0.5C152.5,20.9,152.5,21.1,152.5,21.3z"
				/>
			<path class="st1" d="M163,22.6c0,1.1-0.5,2-1.6,2.5c-0.8,0.4-1.9,0.7-3.1,0.7c-0.2,0-0.4,0-0.6,0c-0.2,0-0.4,0-0.5,0
				c0,0.9,0,1.6,0,2c0,0.4,0,0.6,0,0.5c0,0.6-0.2,0.9-0.7,0.9c-0.2,0-0.3-0.1-0.5-0.2c-0.1-0.1-0.2-0.3-0.2-0.5v-1.6
				c0-0.4,0-0.7,0-1c0-0.3,0-0.5,0-0.6c-0.4-0.1-0.5-0.4-0.5-0.7c0-0.4,0.2-0.6,0.5-0.7c0-0.9,0-1.7,0-2.3c0-0.7,0-1.2,0-1.7l-0.4,0
				c-0.3-0.3-0.4-0.6-0.4-0.8c0-0.2,0.3-0.4,1-0.5c0.5-0.1,0.9-0.2,1.2-0.2c1.5,0,2.7,0.3,3.8,0.9C162.4,20.2,163,21.2,163,22.6z
				 M161.5,22.6c0-1-0.5-1.7-1.5-2.1c-0.7-0.3-1.6-0.5-2.7-0.5c0,0.7,0,1.4,0,2.1c0,0.7,0,1.4,0,2.1c0.1,0,0.3,0,0.4,0s0.3,0,0.5,0
				C160.4,24.3,161.5,23.7,161.5,22.6z"/>
			<path class="st1" d="M171.9,26.2c0,0.8-0.3,1.6-0.9,2.1c-0.6,0.6-1.3,0.8-2.1,0.8c-0.8,0-1.6-0.2-2.2-0.7
				c-0.7-0.5-1.1-1.1-1.4-1.9c0-0.1,0-0.2,0-0.2c0-0.1,0-0.2,0.1-0.3c0-0.1,0.1-0.2,0.2-0.2c0.1-0.1,0.1-0.1,0.2-0.1
				s0.2-0.1,0.3-0.1c0.2,0,0.4,0.1,0.6,0.3c0.1,0.2,0.2,0.4,0.3,0.6c0.2,0.3,0.5,0.6,0.8,0.8c0.4,0.2,0.8,0.3,1.2,0.3
				c0.2,0,0.4,0,0.6-0.1c0.2-0.1,0.3-0.2,0.5-0.3c0.1-0.1,0.2-0.3,0.3-0.5c0.1-0.2,0.1-0.4,0.1-0.6c0-0.4-0.2-0.7-0.5-1
				c-0.1-0.1-0.2-0.1-0.4-0.2c-0.2-0.1-0.4-0.2-0.6-0.3c-1-0.5-1.7-1-2.2-1.4c-0.8-0.7-1.2-1.4-1.2-2.1c0-0.7,0.3-1.3,0.8-1.8
				c0.6-0.5,1.2-0.8,1.9-0.8c0.7,0,1.3,0.2,1.8,0.6c0.5,0.4,0.9,0.9,1.1,1.6c-0.3,0.4-0.6,0.5-0.8,0.5c-0.1,0-0.3-0.1-0.5-0.3
				c-0.1-0.2-0.2-0.3-0.3-0.4c-0.1-0.1-0.2-0.2-0.2-0.2c-0.3-0.2-0.6-0.3-1-0.3c-0.3,0-0.6,0.1-0.9,0.4c-0.3,0.2-0.5,0.5-0.5,0.8
				c0,0.4,0.4,0.9,1.2,1.4c0.6,0.3,1.2,0.6,1.7,0.9c0.6,0.4,1.1,0.7,1.4,1.1C171.7,25,171.9,25.6,171.9,26.2z"/>
		</g>
	</g>
	<path class="st2" d="M205.2,36.2c4-2.9,8.6-5.6,12.5-8.9c1.2-0.9,2.4-1.7,3.6-2.6c0.3-0.2,0.5-0.5,0.5-0.8c0.5,0.6,1.1,1.1,1.8,1.6
		c3.9,2.8,10.2,1.7,12.5-2.7c0.3-0.7-0.2-1.2-0.8-1.3c2-3.9,0.7-9.3-3.2-11.7c-4.4-2.7-11.3-0.1-12.9,4.8c-0.8,2.6-0.1,5.5,1.3,7.8
		c-0.3,0-0.6,0-0.8,0.2c-1.2,0.9-2.4,1.7-3.7,2.6c-4.4,2.6-8.4,6.1-12.5,8.9c-0.7,0.5-0.6,1.3-0.3,1.8
		C203.8,36.4,204.5,36.7,205.2,36.2z M220.9,16.8c-0.2-4.3,4.4-6.6,8.2-6.4c6.3,0.3,6.6,7.3,4.6,11.8c-2.7,1.8-4.7,3.6-8.3,1.8
		C222.7,22.7,221.1,19.7,220.9,16.8z"/>
</g>
</svg>
