<?xml version="1.0" encoding="utf-8"?>
<!-- Generator: Adobe Illustrator 22.1.0, SVG Export Plug-In . SVG Version: 6.00 Build 0)  -->
<svg version="1.1" id="Capa_1" xmlns="http://www.w3.org/2000/svg" xmlns:xlink="http://www.w3.org/1999/xlink" x="0px" y="0px"
	 viewBox="0 0 246.7 45.1" style="enable-background:new 0 0 246.7 45.1;" xml:space="preserve">
<style type="text/css">
	.st0{fill:#FFFFFF;}
	.st1{fill:#EC7522;}
	.st2{fill:#232923;}
</style>
<g>
	<rect y="2.6" class="st0" width="245" height="39"/>
	<rect x="193" y="2.6" class="st1" width="52" height="39"/>
	<path class="st2" d="M240.8,3.8c1.3,0,2.3,1,2.3,2.3l1.3,31.1c0,0.4-0.1,1.3,1.1,1.4c0.4,0,0.4-0.3,0.4-0.7V3.1
		c0-1.6-0.9-2.9-2.5-2.9c-24.3,0-193-0.3-214.8-0.2C10.4,0.1,2.7-0.1,1.5,1.1C-0.2,4,1.1,30.7,1.6,43.2c-0.9,0.2-0.7,0.9-0.4,1.4
		C1.5,45.3,4.4,45,5.4,45c1.3,0,193.3-0.2,239.9-1c0.8,0,1.4-0.6,1.4-1.4c0-0.8-0.6-1.4-1.4-1.4c-6.2-0.1-13.4-0.2-16.9-0.2
		c-1.7,0-14.5,0.1-33.1,0.2c0-6.1,0-12.2,0-18.4c0-6.2,0.7-12.9-0.2-19.1C213.3,3.8,229.4,3.8,240.8,3.8z M3.8,42.8
		C3.7,42.8,4,31.9,4,26.2c0-4.6,0-17.9-0.4-22.5c3-0.1,6-0.2,9-0.2c10.4,0.4,20.9,0.2,31.2,0.3c9.3,0.1,88.8,0,148.6,0
		c-0.8,5.5-1.3,11.3-1.3,16.8c0,3.2,0,6.5,0,9.7c0,3.6,0,7.3,0,10.9c-60,0.3-172.5,1-177.9,1.2C9.7,42.6,7.3,42.5,3.8,42.8z"/>
	<g>
		<g>
			<path class="st1" d="M22.1,9.8c0,0.3-0.2,1.2-0.5,2.7s-0.8,3.6-1.4,6.2c-0.2,0.7-0.4,1-0.8,1c-0.4,0-0.7-0.4-1-1.2
				c0-0.1-0.1-0.2-0.1-0.3c0-0.1-0.1-0.3-0.1-0.4c-0.2-0.5-0.4-1.2-0.6-2c-0.2-0.8-0.5-1.8-0.8-2.8c-0.5,2.5-1,4.5-1.4,6
				c0,0.1-0.1,0.2-0.1,0.4c-0.2,0.3-0.5,0.5-0.8,0.5c-0.3,0-0.5-0.1-0.6-0.4c-0.1-0.2-0.2-0.7-0.4-1.6c-0.2-0.9-0.4-2.1-0.8-3.4
				c-0.3-1.3-0.8-2.8-1.3-4.5c0.3-0.4,0.6-0.6,0.8-0.6c0.2,0,0.4,0.2,0.5,0.5c0,0,0.1,0.1,0.1,0.2c0,0.1,0.1,0.3,0.2,0.5
				c0.3,1,0.6,2,0.9,3c0.3,1,0.5,2,0.7,3c0.3-1,0.5-2,0.7-2.9c0.2-0.9,0.3-1.7,0.4-2.4c0-0.3,0.1-0.5,0.1-0.8c0-0.3,0.1-0.5,0.2-0.7
				c0.1-0.3,0.3-0.5,0.6-0.5c0.5,0,0.9,0.5,1.1,1.6c0.2,0.8,0.4,1.7,0.7,2.7c0.3,1,0.6,2,0.9,3.2c0.1-0.5,0.2-1.1,0.4-1.8
				c0.1-0.7,0.3-1.6,0.5-2.5c0-0.2,0.1-0.4,0.2-0.7s0.1-0.6,0.2-1c0.1-0.4,0.1-0.7,0.2-0.8c0.1-0.3,0.3-0.5,0.6-0.5
				c0.1,0,0.2,0,0.3,0.1c0.1,0,0.2,0.1,0.2,0.1C21.9,9.4,22,9.5,22,9.6C22.1,9.7,22.1,9.8,22.1,9.8z"/>
			<path class="st1" d="M26.3,19.1c0,0.2-0.1,0.4-0.2,0.5s-0.3,0.2-0.5,0.2c-0.2,0-0.4-0.1-0.5-0.2s-0.2-0.3-0.2-0.5v-7.2
				c0-0.1,0-0.4,0-0.8c0-0.3,0-0.6,0-0.8c0-0.7,0.2-1.1,0.7-1.1c0.4,0,0.6,0.2,0.7,0.6c0,0.2,0.1,0.5,0.1,1c0,0.3,0,0.7,0,1.2
				c0,0.5,0,1.1,0,1.7c0,1.3,0,2.3,0,3V19.1z"/>
			<path class="st1" d="M36.5,12.2c0,1.2-0.9,2.1-2.7,2.9c0.1,0.2,0.2,0.4,0.4,0.6c0.2,0.3,0.3,0.6,0.6,0.9c0.1,0.2,0.3,0.4,0.4,0.6
				s0.3,0.4,0.4,0.6c0.4,0.6,0.6,1,0.6,1.2c0,0.1,0,0.2-0.1,0.3c0,0.1-0.1,0.2-0.2,0.2s-0.1,0.1-0.2,0.1c-0.1,0-0.2,0.1-0.3,0.1
				c-0.3,0-0.7-0.3-1.1-1c-0.1-0.3-0.3-0.5-0.4-0.7s-0.3-0.5-0.4-0.7c-0.1-0.2-0.3-0.4-0.4-0.7c-0.2-0.3-0.4-0.6-0.6-1
				c-0.5,0.1-1,0.2-1.5,0.2v2.9c0,0.7-0.2,1.1-0.7,1.1c-0.2,0-0.3-0.1-0.5-0.2c-0.1-0.1-0.2-0.3-0.2-0.5v-1.4c0-0.8,0-1.3,0-1.4
				c0-0.6,0-1.4,0-2.3c0-0.9,0-2,0-3.2h0c-0.4-0.3-0.6-0.6-0.6-0.8c0-0.2,0.3-0.4,1-0.6c0.6-0.1,1-0.2,1.3-0.2
				c1.3,0,2.4,0.2,3.3,0.6C35.9,10.2,36.5,11.1,36.5,12.2z M35.1,12.2c0-0.6-0.5-1.1-1.4-1.4c-0.6-0.2-1.4-0.3-2.2-0.3
				c-0.1,0-0.2,0-0.2,0c-0.1,0-0.1,0-0.2,0c0,0.8,0,2,0,3.8c0.4,0,0.8-0.1,1.2-0.2c0.4-0.1,0.8-0.2,1.2-0.4
				C34.5,13.3,35.1,12.8,35.1,12.2z"/>
			<path class="st1" d="M45.5,9.9c0,0.2-0.1,0.3-0.2,0.5c-0.1,0.1-0.3,0.2-0.5,0.2c-0.4,0-1,0-1.8,0c-0.4,0-0.8,0-1.2,0
				c-0.4,0-0.8,0-1.2,0c0,0.8,0.1,1.8,0.1,3.1h1.3c0.1,0,0.2,0,0.4,0c0.2,0,0.3,0,0.5,0c0.2,0,0.4,0,0.5,0c0.2,0,0.3,0,0.4,0
				c0.2,0,0.4,0.1,0.5,0.2c0.1,0.1,0.2,0.3,0.2,0.5c0,0.5-0.4,0.8-1.3,0.8h-0.9c-0.2,0-0.4,0-0.7,0c-0.3,0-0.6,0-1,0v3.5
				c0.6,0,1.3,0,1.9-0.1c0.6,0,1.3,0,2,0c0.7,0,1,0.2,1,0.7c0,0.5-0.3,0.7-0.9,0.7c-0.2,0-0.5,0-0.9,0s-0.7,0-1.2,0
				c-0.5,0-0.9,0-1.2,0c-0.3,0-0.6,0-0.9,0c-0.2,0-0.4,0-0.6-0.1c-0.2,0-0.3-0.1-0.4-0.2c-0.1-0.1-0.2-0.2-0.2-0.4s-0.1-0.3-0.1-0.6
				c0-0.5,0-1.1,0-1.8c0-0.7,0-1.6,0-2.5s0-1.8,0-2.5c0-0.7,0-1.3,0-1.8s1.6-0.7,4.9-0.7C45,9.2,45.5,9.4,45.5,9.9z"/>
			<path class="st1" d="M54.4,9.9c0,0.2-0.1,0.4-0.2,0.5c-0.1,0.1-0.3,0.2-0.5,0.2h-0.9c-0.2,0-0.4,0-0.5,0c-0.1,0-0.3,0-0.4,0
				c-0.1,0-0.2,0-0.4,0c-0.2,0-0.3,0-0.5,0s-0.4,0-0.5,0c-0.2,0-0.3,0-0.4,0c-0.1,0-0.2,0-0.3,0c-0.1,0-0.2,0-0.3,0v3h2.9
				c0.8,0,1.3,0.2,1.3,0.8c0,0.2-0.1,0.3-0.2,0.5c-0.1,0.1-0.3,0.2-0.4,0.2c-0.1,0-0.1,0-0.2,0c-0.1,0-0.2,0-0.3,0
				c-0.3,0-0.4,0-0.6,0h-1.2c-0.7,0-1.1,0-1.2,0v4.5c-0.3,0.2-0.6,0.3-0.8,0.3c-0.3,0-0.5-0.2-0.5-0.5c0-1,0-2.5,0-4.6
				c0-1,0-1.9,0-2.7c0-0.8,0-1.4,0-1.9c0-0.4,0.1-0.7,0.3-0.9c0.2-0.1,1.8-0.2,4.9-0.2C54,9.2,54.4,9.4,54.4,9.9z"/>
			<path class="st1" d="M64.1,12.2c0,1.2-0.9,2.1-2.7,2.9c0.1,0.2,0.2,0.4,0.4,0.6c0.2,0.3,0.3,0.6,0.6,0.9c0.1,0.2,0.3,0.4,0.4,0.6
				c0.1,0.2,0.3,0.4,0.4,0.6c0.4,0.6,0.6,1,0.6,1.2c0,0.1,0,0.2-0.1,0.3c0,0.1-0.1,0.2-0.2,0.2s-0.1,0.1-0.2,0.1
				c-0.1,0-0.2,0.1-0.3,0.1c-0.3,0-0.7-0.3-1.1-1c-0.1-0.3-0.3-0.5-0.4-0.7s-0.3-0.5-0.4-0.7c-0.1-0.2-0.3-0.4-0.4-0.7
				c-0.2-0.3-0.4-0.6-0.6-1c-0.5,0.1-1,0.2-1.5,0.2v2.9c0,0.7-0.2,1.1-0.7,1.1c-0.2,0-0.3-0.1-0.5-0.2c-0.1-0.1-0.2-0.3-0.2-0.5
				v-1.4c0-0.8,0-1.3,0-1.4c0-0.6,0-1.4,0-2.3c0-0.9,0-2,0-3.2h0c-0.4-0.3-0.6-0.6-0.6-0.8c0-0.2,0.3-0.4,1-0.6
				c0.6-0.1,1-0.2,1.3-0.2c1.3,0,2.4,0.2,3.3,0.6C63.5,10.2,64.1,11.1,64.1,12.2z M62.7,12.2c0-0.6-0.5-1.1-1.4-1.4
				c-0.6-0.2-1.4-0.3-2.2-0.3c-0.1,0-0.2,0-0.2,0c-0.1,0-0.1,0-0.2,0c0,0.8,0,2,0,3.8c0.4,0,0.8-0.1,1.2-0.2
				c0.4-0.1,0.8-0.2,1.2-0.4C62.2,13.3,62.7,12.8,62.7,12.2z"/>
			<path class="st1" d="M74.1,19.1c0,0.1,0,0.2-0.1,0.3c0,0.1-0.1,0.2-0.2,0.2c-0.1,0.1-0.1,0.1-0.2,0.2s-0.2,0.1-0.3,0.1
				c-0.3,0-0.5-0.2-0.6-0.5c0-0.1-0.1-0.4-0.2-0.9c-0.1-0.4-0.2-1-0.4-1.9H72c-0.4,0-0.9,0-1.6,0.1c-0.4,0-0.7,0.1-1,0.1
				c-0.3,0-0.5,0-0.6,0c-0.1,0.3-0.3,0.7-0.4,1.2s-0.4,1-0.6,1.7c-0.3,0.1-0.5,0.1-0.7,0.1c-0.4,0-0.6-0.1-0.6-0.4
				c0-0.1,0.2-0.7,0.5-1.6c0.2-0.5,0.4-1.2,0.7-2c0.3-0.8,0.6-1.8,1-2.8c0.1-0.3,0.2-0.6,0.4-1c0.1-0.4,0.3-0.8,0.5-1.4
				c0.1-0.2,0.2-0.6,0.4-1c0.1-0.2,0.2-0.3,0.3-0.3c0.1,0,0.3-0.1,0.5-0.1c0.2,0,0.4,0.1,0.5,0.3c0.2,0.3,0.4,0.8,0.6,1.3
				c0.1,0.2,0.1,0.5,0.2,0.7c0.1,0.2,0.1,0.5,0.2,0.7c0.3,1,0.6,1.9,0.8,2.7s0.5,1.6,0.6,2.4C73.9,18.2,74.1,18.9,74.1,19.1z
				 M71.7,15.1c-0.2-0.6-0.3-1.1-0.5-1.7c-0.2-0.6-0.4-1.2-0.6-1.7c-0.1,0.2-0.2,0.7-0.4,1.3s-0.5,1.4-0.9,2.4
				C69.8,15.2,70.6,15.2,71.7,15.1z"/>
			<path class="st1" d="M85.2,19.5c-0.3,0.2-0.6,0.3-0.8,0.3c-0.4,0-0.6-0.4-0.6-1.2v-0.4c0-0.1,0-0.2,0-0.2s0-0.1,0-0.2v-4.1
				c-0.3,0.9-0.8,2.2-1.4,3.9c-0.3,0.8-0.4,1.2-0.4,1.3c-0.2,0.5-0.6,0.8-0.9,0.8c-0.4,0-0.7-0.4-1-1.2c-0.2-0.4-0.4-1-0.7-1.9
				c-0.3-0.8-0.7-1.9-1.2-3.1c0,0.8,0,1.4,0,1.9c0,0.5,0,0.8,0,0.9c0,0.5,0,1,0,1.6s0,1.1-0.1,1.6c-0.3,0.2-0.6,0.3-0.8,0.3
				c-0.3,0-0.5-0.2-0.5-0.7c0,0,0-0.1,0-0.1c0-0.1,0-0.1,0-0.2s0-0.1,0-0.2c0-0.1,0-0.1,0-0.1c0-0.4,0-1,0-1.6c0-0.6,0-1.4,0-2.3
				c0-0.9,0-1.6,0-2.3c0-0.6,0-1.2,0-1.6c0-1,0.3-1.5,0.8-1.5c0.2,0,0.3,0.1,0.5,0.2c0.2,0.1,0.2,0.3,0.2,0.4
				c0.1,0.3,0.3,0.8,0.6,1.5c0.3,0.7,0.7,1.7,1.1,2.9c0.1,0.2,0.2,0.5,0.4,1s0.5,1.2,0.8,2l1.9-5.4c0.1-0.2,0.1-0.4,0.2-0.6
				s0.1-0.4,0.2-0.6c0.2-0.7,0.4-1.1,0.5-1.1c0.2-0.2,0.4-0.3,0.5-0.3c0.5,0,0.7,0.4,0.7,1.1V19.5z"/>
			<path class="st1" d="M94.4,9.9c0,0.2-0.1,0.3-0.2,0.5c-0.1,0.1-0.3,0.2-0.5,0.2c-0.4,0-1,0-1.8,0c-0.4,0-0.8,0-1.2,0
				c-0.4,0-0.8,0-1.2,0c0,0.8,0.1,1.8,0.1,3.1h1.3c0.1,0,0.2,0,0.4,0c0.2,0,0.3,0,0.5,0c0.2,0,0.4,0,0.5,0c0.2,0,0.3,0,0.4,0
				c0.2,0,0.4,0.1,0.5,0.2c0.1,0.1,0.2,0.3,0.2,0.5c0,0.5-0.4,0.8-1.3,0.8h-0.9c-0.2,0-0.4,0-0.7,0c-0.3,0-0.6,0-1,0v3.5
				c0.6,0,1.3,0,1.9-0.1c0.6,0,1.3,0,2,0c0.7,0,1,0.2,1,0.7c0,0.5-0.3,0.7-0.9,0.7c-0.2,0-0.5,0-0.9,0s-0.7,0-1.2,0
				c-0.5,0-0.9,0-1.2,0c-0.3,0-0.6,0-0.9,0c-0.2,0-0.4,0-0.6-0.1c-0.2,0-0.3-0.1-0.4-0.2c-0.1-0.1-0.2-0.2-0.2-0.4S88,18.8,88,18.6
				c0-0.5,0-1.1,0-1.8c0-0.7,0-1.6,0-2.5s0-1.8,0-2.5c0-0.7,0-1.3,0-1.8s1.6-0.7,4.9-0.7C93.9,9.2,94.4,9.4,94.4,9.9z"/>
			<path class="st1" d="M103.5,16.9c0,0.8-0.3,1.6-0.9,2.1c-0.6,0.6-1.3,0.8-2.1,0.8c-0.8,0-1.6-0.2-2.2-0.7
				c-0.7-0.5-1.1-1.1-1.4-1.9c0-0.1,0-0.2,0-0.2c0-0.1,0-0.2,0.1-0.3c0-0.1,0.1-0.2,0.2-0.2c0.1-0.1,0.1-0.1,0.2-0.1
				s0.2-0.1,0.3-0.1c0.2,0,0.4,0.1,0.6,0.3c0.1,0.2,0.2,0.4,0.3,0.6c0.2,0.3,0.5,0.6,0.8,0.8c0.4,0.2,0.8,0.3,1.2,0.3
				c0.2,0,0.4,0,0.6-0.1c0.2-0.1,0.3-0.2,0.5-0.3c0.1-0.1,0.2-0.3,0.3-0.5c0.1-0.2,0.1-0.4,0.1-0.6c0-0.4-0.2-0.7-0.5-1
				c-0.1-0.1-0.2-0.1-0.4-0.2c-0.2-0.1-0.4-0.2-0.6-0.3c-1-0.5-1.7-1-2.2-1.4c-0.8-0.7-1.2-1.4-1.2-2.1c0-0.7,0.3-1.3,0.8-1.8
				c0.6-0.5,1.2-0.8,1.9-0.8c0.7,0,1.3,0.2,1.8,0.6c0.5,0.4,0.9,0.9,1.1,1.6c-0.3,0.4-0.6,0.5-0.8,0.5c-0.1,0-0.3-0.1-0.5-0.3
				c-0.1-0.2-0.2-0.3-0.3-0.4c-0.1-0.1-0.2-0.2-0.2-0.2c-0.3-0.2-0.6-0.3-1-0.3c-0.3,0-0.6,0.1-0.9,0.4c-0.3,0.2-0.5,0.5-0.5,0.8
				c0,0.4,0.4,0.9,1.2,1.4c0.6,0.3,1.2,0.6,1.7,0.9c0.6,0.4,1.1,0.7,1.4,1.1C103.3,15.7,103.5,16.2,103.5,16.9z"/>
			<path class="st1" d="M119,14.7c0,1.3-0.3,2.5-0.9,3.4c-0.7,1.1-1.7,1.7-2.9,1.7c-1.2,0-2.2-0.5-2.9-1.4c-0.6-0.8-0.9-1.9-0.9-3.2
				c0-1.4,0.3-2.7,0.9-3.9c0.7-1.4,1.7-2.1,3-2.1c1.2,0,2.2,0.6,2.9,1.9C118.7,12.1,119,13.3,119,14.7z M117.5,14.7
				c0-0.8-0.1-1.5-0.3-2.2c-0.3-0.9-0.7-1.4-1.3-1.7c-0.2-0.1-0.4-0.2-0.5-0.2c-0.3,0-0.6,0.1-0.9,0.3c-0.6,0.3-1.1,0.9-1.3,1.9
				c-0.2,0.7-0.3,1.5-0.3,2.4c0,2.2,0.9,3.3,2.6,3.3c0.7,0,1.3-0.5,1.7-1.4C117.3,16.3,117.5,15.5,117.5,14.7z"/>
			<path class="st1" d="M134.5,9.9c0,0.2-0.1,0.4-0.2,0.5c-0.1,0.1-0.3,0.2-0.5,0.2h-2.7c0,3.5,0,5.5,0,5.9v3
				c-0.3,0.2-0.6,0.3-0.9,0.3c-0.3,0-0.5-0.3-0.5-0.8v-0.2c0,0,0-0.1,0-0.1c0,0,0-0.1,0-0.1v-1.8c0-1.3-0.1-3.4-0.1-6.3
				c-0.5,0-0.9,0-1.1,0c-0.4,0-0.9,0-1.5-0.1c-0.2-0.3-0.3-0.6-0.3-0.8c0-0.4,2.2-0.6,6.6-0.6C134.1,9.2,134.5,9.4,134.5,9.9z"/>
			<path class="st1" d="M144.2,10c0,1,0,2.5,0,4.4c0,1,0,1.9,0,2.6c0,0.7,0,1.3,0,1.8c0,0.6-0.2,1-0.7,1c-0.2,0-0.3-0.1-0.5-0.2
				c-0.1-0.1-0.2-1.7-0.2-4.7c-0.9,0-1.6,0.1-2.2,0.1c-0.6,0-1,0-1.3,0c-0.4,0-0.6,0-0.9,0v1.9c0,0.4,0,0.8,0,1.1s0,0.6,0,0.8
				c0,0.6-0.2,1-0.7,1c-0.2,0-0.4-0.1-0.5-0.2c-0.1-0.1-0.2-0.3-0.2-0.5V9.6c0.4-0.2,0.7-0.4,0.9-0.4c0.3,0,0.5,0.2,0.5,0.5v3.9
				c0.1,0,0.2,0,0.3,0s0.2,0,0.3,0c0.2,0,0.4,0,0.8,0c0.3,0,0.7,0,1.1-0.1c0.8-0.1,1.5-0.1,1.9-0.1v-0.8c0-0.4,0-0.6,0-0.9
				c0-0.4,0-0.8,0-1.2c0-0.4,0-0.7,0.1-1.1c0.3-0.2,0.6-0.3,0.8-0.3C144.1,9.2,144.2,9.4,144.2,10z"/>
			<path class="st1" d="M153.4,9.9c0,0.2-0.1,0.3-0.2,0.5c-0.1,0.1-0.3,0.2-0.5,0.2c-0.4,0-1,0-1.8,0c-0.4,0-0.8,0-1.2,0
				c-0.4,0-0.8,0-1.2,0c0,0.8,0.1,1.8,0.1,3.1h1.3c0.1,0,0.2,0,0.4,0c0.2,0,0.3,0,0.5,0c0.2,0,0.4,0,0.5,0c0.2,0,0.3,0,0.4,0
				c0.2,0,0.4,0.1,0.5,0.2c0.1,0.1,0.2,0.3,0.2,0.5c0,0.5-0.4,0.8-1.3,0.8h-0.9c-0.2,0-0.4,0-0.7,0c-0.3,0-0.6,0-1,0v3.5
				c0.6,0,1.3,0,1.9-0.1c0.6,0,1.3,0,2,0c0.7,0,1,0.2,1,0.7c0,0.5-0.3,0.7-0.9,0.7c-0.2,0-0.5,0-0.9,0s-0.7,0-1.2,0
				c-0.5,0-0.9,0-1.2,0c-0.3,0-0.6,0-0.9,0c-0.2,0-0.4,0-0.6-0.1c-0.2,0-0.3-0.1-0.4-0.2c-0.1-0.1-0.2-0.2-0.2-0.4s-0.1-0.3-0.1-0.6
				c0-0.5,0-1.1,0-1.8c0-0.7,0-1.6,0-2.5s0-1.8,0-2.5c0-0.7,0-1.3,0-1.8s1.6-0.7,4.9-0.7C153,9.2,153.4,9.4,153.4,9.9z"/>
			<path class="st1" d="M167.8,9.9c0,0.2-0.1,0.4-0.2,0.5c-0.1,0.1-0.3,0.2-0.5,0.2h-0.9c-0.2,0-0.4,0-0.5,0c-0.1,0-0.3,0-0.4,0
				c-0.1,0-0.2,0-0.4,0c-0.2,0-0.3,0-0.5,0s-0.4,0-0.5,0c-0.2,0-0.3,0-0.4,0c-0.1,0-0.2,0-0.3,0c-0.1,0-0.2,0-0.3,0v3h2.9
				c0.8,0,1.3,0.2,1.3,0.8c0,0.2-0.1,0.3-0.2,0.5c-0.1,0.1-0.3,0.2-0.4,0.2c-0.1,0-0.1,0-0.2,0c-0.1,0-0.2,0-0.3,0
				c-0.3,0-0.4,0-0.6,0h-1.2c-0.7,0-1.1,0-1.2,0v4.5c-0.3,0.2-0.6,0.3-0.8,0.3c-0.3,0-0.5-0.2-0.5-0.5c0-1,0-2.5,0-4.6
				c0-1,0-1.9,0-2.7c0-0.8,0-1.4,0-1.9c0-0.4,0.1-0.7,0.3-0.9c0.2-0.1,1.8-0.2,4.9-0.2C167.5,9.2,167.8,9.4,167.8,9.9z"/>
			<path class="st1" d="M176.5,19.1c0,0.4-0.3,0.7-0.8,0.7c-0.4,0-0.9,0-1.6,0c-0.4,0-0.7,0-0.9,0c-0.3,0-0.5,0-0.6,0
				c-0.9,0-1.5,0-1.7-0.1c-0.3-0.1-0.5-0.9-0.5-2.1c0-0.8,0-2.1-0.1-3.7c0-0.8,0-1.6,0-2.2s0-1.1,0-1.6c0-0.6,0.2-0.9,0.7-0.9
				c0.5,0,0.7,0.4,0.7,1.2c0,0,0,0.1,0,0.2c0,0.1,0,0.1,0,0.2c0,0.1,0,0.2,0,0.2c0,0.1,0,0.1,0,0.2c0,0.3,0,0.8,0,1.3
				c0,0.5,0,1.1,0,1.8c0,1.4,0,2.4,0,3v1.2h1c0.2,0,0.3,0,0.6,0s0.5,0,0.8,0c0.3,0,0.6,0,0.8,0s0.4,0,0.6,0
				C176.1,18.3,176.5,18.6,176.5,19.1z"/>
			<path class="st1" d="M184.4,9.9c0,0.3-0.5,1.1-1.4,2.4c-0.1,0.2-0.8,1-1.8,2.5c0,1.3,0.1,2.4,0.1,3.4c0,0.2,0,0.5,0,0.7
				c0,0.2,0,0.4-0.1,0.7c-0.3,0.2-0.5,0.3-0.8,0.3c-0.4,0-0.6-0.4-0.6-1.3c0-0.1,0-0.2,0-0.3s0-0.3,0-0.4s0-0.3,0-0.4
				c0-0.1,0-0.2,0-0.3v-2.2c-0.5-0.7-1-1.4-1.5-2.2c-0.5-0.8-1-1.7-1.5-2.6c0.2-0.5,0.5-0.8,0.8-0.8c0.2,0,0.4,0.2,0.7,0.6
				c0.1,0.1,0.3,0.5,0.7,1.1s0.9,1.3,1.5,2.3c0.2-0.3,0.5-0.6,0.8-1c0.3-0.4,0.6-0.9,1-1.4c0.1-0.1,0.2-0.3,0.2-0.4
				c0.1-0.1,0.2-0.3,0.2-0.4c0.2-0.4,0.4-0.6,0.6-0.7c0.1-0.1,0.2-0.1,0.4-0.1c0.1,0,0.2,0,0.3,0.1c0.1,0,0.2,0.1,0.2,0.2
				s0.1,0.1,0.2,0.2C184.4,9.7,184.4,9.8,184.4,9.9z"/>
			<path class="st1" d="M58.3,37.7c-0.3,0.2-0.6,0.3-0.8,0.3c-0.4,0-0.6-0.4-0.6-1.2v-0.4c0-0.1,0-0.2,0-0.2s0-0.1,0-0.2V32
				c-0.3,0.9-0.8,2.2-1.4,3.9c-0.3,0.8-0.4,1.2-0.4,1.3c-0.2,0.5-0.6,0.8-0.9,0.8c-0.4,0-0.7-0.4-1-1.2c-0.2-0.4-0.4-1-0.7-1.9
				c-0.3-0.8-0.7-1.9-1.2-3.1c0,0.8,0,1.4,0,1.9c0,0.5,0,0.8,0,0.9c0,0.5,0,1,0,1.6s0,1.1-0.1,1.6c-0.3,0.2-0.6,0.3-0.8,0.3
				c-0.3,0-0.5-0.2-0.5-0.7c0,0,0-0.1,0-0.1c0-0.1,0-0.1,0-0.2s0-0.1,0-0.2c0-0.1,0-0.1,0-0.1c0-0.4,0-1,0-1.6c0-0.6,0-1.4,0-2.3
				c0-0.9,0-1.6,0-2.3c0-0.6,0-1.2,0-1.6c0-1,0.3-1.5,0.8-1.5c0.2,0,0.3,0.1,0.5,0.2c0.2,0.1,0.2,0.3,0.2,0.4
				c0.1,0.3,0.3,0.8,0.6,1.5c0.3,0.7,0.7,1.7,1.1,2.9c0.1,0.2,0.2,0.5,0.4,1s0.5,1.2,0.8,2l1.9-5.4c0.1-0.2,0.1-0.4,0.2-0.6
				s0.1-0.4,0.2-0.6c0.2-0.7,0.4-1.1,0.5-1.1c0.2-0.2,0.4-0.3,0.5-0.3c0.5,0,0.7,0.4,0.7,1.1V37.7z"/>
			<path class="st1" d="M68.6,32.9c0,1.3-0.3,2.5-0.9,3.4c-0.7,1.1-1.7,1.7-2.9,1.7c-1.2,0-2.2-0.5-2.9-1.4
				c-0.6-0.8-0.9-1.9-0.9-3.2c0-1.4,0.3-2.7,0.9-3.9c0.7-1.4,1.7-2.1,3-2.1c1.2,0,2.2,0.6,2.9,1.9C68.3,30.4,68.6,31.6,68.6,32.9z
				 M67.1,32.9c0-0.8-0.1-1.5-0.3-2.2c-0.3-0.9-0.7-1.4-1.3-1.7c-0.2-0.1-0.4-0.2-0.5-0.2c-0.3,0-0.6,0.1-0.9,0.3
				C63.5,29.4,63,30,62.7,31c-0.2,0.7-0.3,1.5-0.3,2.4c0,2.2,0.9,3.3,2.6,3.3c0.7,0,1.3-0.5,1.7-1.4C67,34.5,67.1,33.8,67.1,32.9z"
				/>
			<path class="st1" d="M78,35.8c0,0.1-0.1,0.3-0.2,0.6c-0.5,1.1-1.4,1.6-2.8,1.6c-1.3,0-2.2-0.5-2.9-1.4c-0.6-0.8-0.9-1.9-0.9-3.2
				c0-1.4,0.3-2.7,1-4c0.8-1.4,1.9-2.1,3.2-2.1c1,0,1.8,0.6,2.3,1.8c0,0,0,0.1,0,0.2c0,0.2-0.1,0.4-0.2,0.5
				c-0.1,0.1-0.3,0.2-0.5,0.2c-0.3,0-0.5-0.2-0.8-0.6c-0.2-0.4-0.5-0.6-0.8-0.6c-0.9,0-1.6,0.6-2.1,1.8c-0.4,1-0.7,1.9-0.7,2.9
				c0,0.9,0.2,1.6,0.5,2.1c0.4,0.6,1,1,1.9,1c0.9,0,1.5-0.4,1.8-1.2c0.2-0.1,0.5-0.1,0.6-0.1C77.8,35.3,78,35.5,78,35.8z"/>
			<path class="st1" d="M87,37.3c0,0.2-0.1,0.4-0.2,0.5c-0.1,0.1-0.3,0.2-0.5,0.2c-0.2,0-0.4-0.1-0.6-0.4c0,0-0.1-0.1-0.2-0.2
				s-0.2-0.2-0.3-0.4c-0.2-0.3-0.4-0.6-0.6-0.9c-0.2-0.3-0.4-0.6-0.7-0.9c-0.2-0.2-0.4-0.4-0.6-0.7s-0.5-0.7-0.8-1.1
				c-0.2,0.2-0.3,0.4-0.5,0.5c0,0.4,0,0.7,0,1c0,0.3,0,0.6,0,0.9c0,0.8,0,1.4,0,1.8c-0.3,0.2-0.6,0.3-0.8,0.3c-0.3,0-0.5-0.3-0.5-1
				v-0.4c0-0.1,0-0.2,0-0.2s0-0.1,0-0.2c0-0.9,0-2.2,0-4c0-1.8,0-3.1,0-4c0-0.6,0.2-1,0.7-1c0.2,0,0.3,0.1,0.5,0.2
				c0.1,0.1,0.2,1.6,0.2,4.3c0.4-0.4,0.8-1,1.3-1.6s1.1-1.4,1.9-2.3c0.3-0.4,0.6-0.6,0.8-0.6c0.1,0,0.2,0,0.3,0.1
				c0.1,0,0.2,0.1,0.2,0.2c0.1,0.1,0.1,0.1,0.1,0.2s0.1,0.2,0.1,0.3c0,0.2-0.1,0.4-0.3,0.7c-0.1,0.1-0.2,0.2-0.3,0.3
				c-0.1,0.1-0.2,0.2-0.3,0.3c0,0.1-0.3,0.3-0.7,0.8c-0.4,0.5-1,1.2-1.7,2.1c0.4,0.4,0.9,1.1,1.5,1.9c0.7,1,1.2,1.6,1.4,1.9
				c0.1,0.2,0.3,0.4,0.5,0.5C86.9,37,87,37.2,87,37.3z"/>
			<path class="st1" d="M91.2,37.3c0,0.2-0.1,0.4-0.2,0.5s-0.3,0.2-0.5,0.2c-0.2,0-0.4-0.1-0.5-0.2s-0.2-0.3-0.2-0.5v-7.2
				c0-0.1,0-0.4,0-0.8c0-0.3,0-0.6,0-0.8c0-0.7,0.2-1.1,0.7-1.1c0.4,0,0.6,0.2,0.7,0.6c0,0.2,0.1,0.5,0.1,1c0,0.3,0,0.7,0,1.2
				c0,0.5,0,1.1,0,1.7c0,1.3,0,2.3,0,3V37.3z"/>
			<path class="st1" d="M101.1,37.4c0,0.4-0.3,0.7-0.9,0.7c-0.3,0-0.7-0.4-1-1.1c0-0.1-0.1-0.2-0.1-0.3c-0.1-0.1-0.1-0.3-0.2-0.5
				c-0.5-1.1-1.1-2.1-1.6-3.1c-0.5-1-1.1-2-1.7-2.9v6c0,0.1,0,0.2,0,0.4c0,0.2,0,0.3,0,0.4c0,0.7-0.2,1.1-0.7,1.1
				c-0.4,0-0.7-2.1-0.7-6.2c0-0.2,0-0.4,0-0.7s0-0.6,0-0.9c0-0.4,0-0.7,0-0.9c0-0.3,0-0.5,0-0.7c0-0.6,0.1-1,0.3-1.1
				c0.1-0.1,0.3-0.1,0.6-0.1c0.1,0,0.3,0.1,0.4,0.2c0.4,0.4,1,1.1,1.6,2.2c0.1,0.2,0.3,0.5,0.5,0.9s0.5,1,0.9,1.6
				c0.4,0.8,0.9,1.6,1.4,2.6v-3.1c0-0.2,0-0.5,0-0.8c0-0.3,0-0.7,0-1.1c0-0.4,0-0.8,0-1.1c0-0.3,0-0.6,0-0.8c0-0.1,0.1-0.2,0.3-0.4
				c0.2-0.1,0.4-0.2,0.5-0.2c0.2,0,0.4,0.1,0.5,0.4c0.1,0.3,0.2,1,0.2,1.9V37.4z"/>
			<path class="st1" d="M111,34.8c0,0.2,0,0.4,0,0.6c0,0.2,0,0.3,0,0.4c0,1.1-0.1,1.8-0.2,2.1c-0.1,0.4-0.4,0.6-0.8,0.6
				c-0.2,0-0.4-0.1-0.5-0.2c-0.1-0.1-0.2-0.3-0.2-0.6c-0.4,0.2-0.9,0.3-1.5,0.3c-1.4,0-2.4-0.6-3.2-1.7c-0.7-1-1-2.2-1-3.6
				c0-1.3,0.3-2.4,0.9-3.5c0.7-1.2,1.7-1.8,2.9-1.8c1.1,0,2.1,0.6,2.9,1.7c-0.2,0.6-0.5,0.8-0.8,0.8c0,0-0.3-0.2-0.8-0.6
				c-0.5-0.4-0.9-0.6-1.3-0.6c-0.8,0-1.4,0.5-1.8,1.4c-0.4,0.7-0.5,1.5-0.5,2.4c0,1,0.2,1.9,0.6,2.6c0.5,0.9,1.2,1.3,2.1,1.3
				c0.7,0,1.2-0.3,1.5-1v-2.2c-0.2,0-0.4,0-0.8,0c-0.3,0-0.6,0-0.8,0c-0.4,0-0.7-0.1-1.1-0.2c-0.1-0.3-0.2-0.5-0.2-0.7
				c0-0.3,0.1-0.4,0.4-0.5c0.1,0,0.3,0,0.7,0c0.1,0,0.3,0,0.5,0c0.2,0,0.4,0,0.7,0s0.5,0,0.7,0c0.2,0,0.3,0,0.5,0
				c0.5,0,0.8,0.2,0.9,0.7c0.1,0.3,0.1,0.7,0.1,1.2V34.8z"/>
			<path class="st1" d="M121.9,35.1c0,1.1-0.5,1.9-1.6,2.4c-0.8,0.4-1.8,0.6-3,0.6s-2.2-0.2-3.2-0.6c0-0.2,0-0.3,0-0.4
				c0-0.2,0-0.3,0.1-0.5c0.1-0.2,0.2-0.3,0.4-0.3c0.2,0,0.4,0,0.6,0.1c0-0.4,0-0.7,0-1c0-0.3,0-0.4,0-0.6v-3
				c-0.1-0.7-0.1-1.3-0.2-1.8c0-0.5-0.1-0.9-0.1-1.2l-0.7,0.1c-0.5-0.2-0.7-0.4-0.7-0.7c0-0.5,0.5-0.8,1.5-0.8
				c1.5,0,2.8,0.2,3.8,0.6c1.5,0.6,2.2,1.5,2.2,2.8c0,0.7-0.4,1.3-1.1,1.8C121.3,33.2,121.9,34,121.9,35.1z M119.8,30.8
				c0-0.6-0.4-1.1-1.3-1.5c-0.6-0.2-1.3-0.4-2.1-0.4c0,0.7,0,1.7,0,3c0.1,0,0.2-0.1,0.3-0.1c0.1,0,0.2,0,0.3,0c0.1,0,0.1,0,0.2,0
				c0.1,0,0.1,0,0.1,0c0.5,0,1-0.1,1.4-0.2C119.5,31.5,119.8,31.2,119.8,30.8z M120.4,35.1c0-0.5-0.3-0.8-1-1.2
				c-0.5-0.2-1-0.4-1.6-0.5c-0.1,0-0.3,0-0.5-0.1c-0.2,0-0.4-0.1-0.7-0.1c0,0.4,0,0.7,0,1c0,0.3,0,0.6,0,0.9c0,0.6,0,1.1-0.1,1.5
				c0.2,0,0.4,0,0.6,0C119.3,36.7,120.4,36.1,120.4,35.1z"/>
			<path class="st1" d="M126.1,37.3c0,0.2-0.1,0.4-0.2,0.5s-0.3,0.2-0.5,0.2c-0.2,0-0.4-0.1-0.5-0.2s-0.2-0.3-0.2-0.5v-7.2
				c0-0.1,0-0.4,0-0.8c0-0.3,0-0.6,0-0.8c0-0.7,0.2-1.1,0.7-1.1c0.4,0,0.6,0.2,0.7,0.6c0,0.2,0.1,0.5,0.1,1c0,0.3,0,0.7,0,1.2
				c0,0.5,0,1.1,0,1.7c0,1.3,0,2.3,0,3V37.3z"/>
			<path class="st1" d="M136.3,30.5c0,1.2-0.9,2.1-2.7,2.9c0.1,0.2,0.2,0.4,0.4,0.6c0.2,0.3,0.3,0.6,0.6,0.9
				c0.1,0.2,0.3,0.4,0.4,0.6s0.3,0.4,0.4,0.6c0.4,0.6,0.6,1,0.6,1.2c0,0.1,0,0.2-0.1,0.3c0,0.1-0.1,0.2-0.2,0.2s-0.1,0.1-0.2,0.1
				c-0.1,0-0.2,0.1-0.3,0.1c-0.3,0-0.7-0.3-1.1-1c-0.1-0.3-0.3-0.5-0.4-0.7s-0.3-0.5-0.4-0.7c-0.1-0.2-0.3-0.4-0.4-0.7
				c-0.2-0.3-0.4-0.6-0.6-1c-0.5,0.1-1,0.2-1.5,0.2V37c0,0.7-0.2,1.1-0.7,1.1c-0.2,0-0.3-0.1-0.5-0.2c-0.1-0.1-0.2-0.3-0.2-0.5V36
				c0-0.8,0-1.3,0-1.4c0-0.6,0-1.4,0-2.3c0-0.9,0-2,0-3.2h0c-0.4-0.3-0.6-0.6-0.6-0.8c0-0.2,0.3-0.4,1-0.6c0.6-0.1,1-0.2,1.3-0.2
				c1.3,0,2.4,0.2,3.3,0.6C135.7,28.5,136.3,29.3,136.3,30.5z M134.8,30.4c0-0.6-0.5-1.1-1.4-1.4c-0.6-0.2-1.4-0.3-2.2-0.3
				c-0.1,0-0.2,0-0.2,0c-0.1,0-0.1,0-0.2,0c0,0.8,0,2,0,3.8c0.4,0,0.8-0.1,1.2-0.2c0.4-0.1,0.8-0.2,1.2-0.4
				C134.3,31.6,134.8,31.1,134.8,30.4z"/>
			<path class="st1" d="M146,32.8c0,1.4-0.5,2.7-1.4,3.7c-1,1-2.2,1.6-3.6,1.6c-0.4,0-0.9-0.1-1.4-0.3c-0.6-0.2-1-0.5-1-0.8
				c0-0.2,0.1-0.4,0.2-0.5c0.1-0.1,0.3-0.2,0.5-0.2c0.1,0,0.1,0,0.2,0c0-0.5,0-1.4,0-2.6s0-2.7,0-4.5h0c-0.4,0-0.6-0.2-0.6-0.5
				l0-0.1c0.2-0.5,0.5-0.8,0.9-1c0.3-0.1,0.8-0.2,1.4-0.2c1.4,0,2.6,0.6,3.5,1.7C145.6,30.1,146,31.4,146,32.8z M144.6,32.8
				c0-0.7-0.1-1.3-0.4-1.9c-0.3-0.7-0.7-1.2-1.2-1.5c-0.6-0.4-1.3-0.6-2.1-0.6c0,0.9,0,2,0,3.2c0,1.3,0,2.8,0,4.5h0.1
				c1,0,1.9-0.4,2.6-1.1C144.2,34.7,144.6,33.8,144.6,32.8z"/>
		</g>
	</g>
	<path class="st2" d="M205.2,36.2c4-2.9,8.6-5.6,12.5-8.9c1.2-0.9,2.4-1.7,3.6-2.6c0.3-0.2,0.5-0.5,0.5-0.8c0.5,0.6,1.1,1.1,1.8,1.6
		c3.9,2.8,10.2,1.7,12.5-2.7c0.3-0.7-0.2-1.2-0.8-1.3c2-3.9,0.7-9.3-3.2-11.7c-4.4-2.7-11.3-0.1-12.9,4.8c-0.8,2.6-0.1,5.5,1.3,7.8
		c-0.3,0-0.6,0-0.8,0.2c-1.2,0.9-2.4,1.7-3.7,2.6c-4.4,2.6-8.4,6.1-12.5,8.9c-0.7,0.5-0.6,1.3-0.3,1.8
		C203.8,36.4,204.5,36.7,205.2,36.2z M220.9,16.8c-0.2-4.3,4.4-6.6,8.2-6.4c6.3,0.3,6.6,7.3,4.6,11.8c-2.7,1.8-4.7,3.6-8.3,1.8
		C222.7,22.7,221.1,19.7,220.9,16.8z"/>
</g>
</svg>
