<?xml version="1.0" encoding="utf-8"?>
<!-- Generator: Adobe Illustrator 17.0.0, SVG Export Plug-In . SVG Version: 6.00 Build 0)  -->
<!DOCTYPE svg PUBLIC "-//W3C//DTD SVG 1.1//EN" "http://www.w3.org/Graphics/SVG/1.1/DTD/svg11.dtd" [
	<!ENTITY ns_flows "http://ns.adobe.com/Flows/1.0/">
	<!ENTITY ns_extend "http://ns.adobe.com/Extensibility/1.0/">
	<!ENTITY ns_ai "http://ns.adobe.com/AdobeIllustrator/10.0/">
	<!ENTITY ns_graphs "http://ns.adobe.com/Graphs/1.0/">
	<!ENTITY ns_vars "http://ns.adobe.com/Variables/1.0/">
	<!ENTITY ns_imrep "http://ns.adobe.com/ImageReplacement/1.0/">
	<!ENTITY ns_sfw "http://ns.adobe.com/SaveForWeb/1.0/">
	<!ENTITY ns_custom "http://ns.adobe.com/GenericCustomNamespace/1.0/">
	<!ENTITY ns_adobe_xpath "http://ns.adobe.com/XPath/1.0/">
]>
<svg version="1.1" id="Capa_1" xmlns:x="&ns_extend;" xmlns:i="&ns_ai;" xmlns:graph="&ns_graphs;"
	 xmlns="http://www.w3.org/2000/svg" xmlns:xlink="http://www.w3.org/1999/xlink" xmlns:a="http://ns.adobe.com/AdobeSVGViewerExtensions/3.0/"
	 x="0px" y="0px" width="56.626px" height="56.623px" viewBox="0 0 56.626 56.623"
	 style="enable-background:new 0 0 56.626 56.623;" xml:space="preserve">
<style type="text/css">
	.st0{fill:none;stroke:#000000;stroke-width:0.75;stroke-miterlimit:10;}
	.st1{fill:none;stroke:#EC7522;stroke-width:0.75;stroke-miterlimit:10;}
	.st2{fill:#EC7522;}
</style>
<metadata>
	<sfw  xmlns="&ns_sfw;">
		<slices></slices>
		<sliceSourceBounds  width="58.38" height="419.123" y="-1776.137" x="3781.979" bottomLeftOrigin="true"></sliceSourceBounds>
	</sfw>
</metadata>
<g>
	<path class="st0" d="M53.416,28.741c0.948-0.143,1.901-0.253,2.835-0.38c0-0.998-0.033-2.011-0.144-3.024
		c-0.949-0.032-1.9-0.016-2.867-0.032c-0.094-0.601-0.173-1.219-0.236-1.837c0.887-0.286,1.758-0.602,2.629-0.871
		c-0.143-1.013-0.443-1.979-0.761-2.945c-0.935,0.174-1.853,0.348-2.787,0.523c-0.238-0.57-0.458-1.141-0.632-1.742
		c0.824-0.443,1.614-0.95,2.422-1.425c-0.395-0.934-0.886-1.821-1.379-2.707c-0.869,0.364-1.74,0.76-2.628,1.124
		c-0.315-0.506-0.65-1.029-0.981-1.52c0.666-0.681,1.393-1.299,2.091-1.948c-0.587-0.823-1.235-1.6-1.901-2.359
		c-0.807,0.538-1.582,1.093-2.376,1.631c-0.427-0.412-0.854-0.854-1.28-1.283c0.537-0.791,1.107-1.567,1.646-2.375
		c-0.776-0.649-1.554-1.299-2.36-1.885c-0.649,0.697-1.265,1.409-1.947,2.09c-0.508-0.332-1.014-0.665-1.521-0.998
		c0.347-0.887,0.76-1.742,1.094-2.644c-0.873-0.507-1.773-0.951-2.693-1.378c-0.491,0.823-0.966,1.647-1.473,2.47
		c-0.569-0.221-1.141-0.443-1.709-0.665c0.189-0.934,0.394-1.868,0.506-2.818c-0.95-0.301-1.9-0.554-2.883-0.776
		c-0.3,0.887-0.617,1.773-0.901,2.676c-0.602-0.047-1.204-0.143-1.821-0.238c-0.016-0.966,0-1.932-0.047-2.882
		c-1.014-0.079-2.027-0.127-3.026-0.143c-0.126,0.919-0.252,1.853-0.331,2.802c-0.619,0.064-1.222,0.127-1.838,0.127
		c-0.236-0.918-0.443-1.853-0.664-2.787c-0.998,0.111-1.996,0.269-2.979,0.475c0.08,0.951,0.16,1.9,0.238,2.834
		c-0.586,0.19-1.171,0.348-1.773,0.459c-0.412-0.855-0.791-1.711-1.188-2.565c-0.966,0.3-1.884,0.665-2.819,1.061
		c0.239,0.918,0.555,1.821,0.808,2.739c-0.538,0.285-1.076,0.555-1.631,0.84c-0.585-0.745-1.142-1.536-1.71-2.281
		c-0.871,0.491-1.694,1.062-2.517,1.631c0.41,0.855,0.899,1.678,1.361,2.503c-0.462,0.411-0.936,0.807-1.41,1.187
		c-0.744-0.617-1.456-1.267-2.184-1.884C8.934,8.234,8.221,8.931,7.525,9.643c0.617,0.73,1.267,1.442,1.869,2.186
		c-0.381,0.475-0.762,0.95-1.157,1.41c-0.839-0.46-1.663-0.935-2.501-1.362c-0.589,0.808-1.157,1.647-1.646,2.518
		c0.743,0.586,1.52,1.124,2.278,1.71c-0.284,0.538-0.489,1.108-0.854,1.583c-0.919-0.142-1.758-0.569-2.661-0.728
		c-0.539,0.839-0.775,1.852-1.125,2.787c0.855,0.397,1.711,0.776,2.566,1.188c-0.128,0.603-0.285,1.204-0.46,1.79
		c-0.95-0.078-1.9-0.173-2.835-0.253c-0.222,0.998-0.395,1.995-0.475,3.008c0.934,0.205,1.869,0.396,2.788,0.633
		c-0.017,0.602-0.048,1.22-0.097,1.837c-0.95,0.095-1.898,0.222-2.835,0.332c-0.031,1.013,0.049,2.027,0.144,3.024
		c0.966,0.032,1.917,0.032,2.883,0.064c0.079,0.601,0.174,1.204,0.237,1.821c-0.903,0.284-1.774,0.585-2.662,0.902
		c0.19,0.982,0.43,1.963,0.778,2.914c0.933-0.158,1.868-0.365,2.802-0.523c0.221,0.571,0.442,1.125,0.666,1.695
		c-0.823,0.506-1.648,0.982-2.471,1.457c0.429,0.918,0.854,1.837,1.378,2.708c0.869-0.364,1.742-0.745,2.628-1.109
		c0.334,0.507,0.666,1.014,0.997,1.536c-0.695,0.649-1.411,1.283-2.09,1.948c0.57,0.823,1.235,1.599,1.9,2.344
		c0.792-0.539,1.568-1.093,2.36-1.632c0.354,0.354,0.708,0.708,1.063,1.063c0.072,0.073,0.146,0.146,0.219,0.22
		c-0.073,0.107-0.147,0.212-0.219,0.319c-0.47,0.681-0.946,1.356-1.411,2.041c0.457,0.418,0.923,0.827,1.411,1.208
		c0.306,0.239,0.618,0.469,0.947,0.677c0.65-0.696,1.284-1.409,1.948-2.075c0.507,0.333,1.014,0.65,1.505,0.998
		c-0.349,0.872-0.745,1.743-1.093,2.629c0.871,0.522,1.773,0.982,2.708,1.362c0.475-0.807,0.982-1.599,1.424-2.438
		c0.556,0.206,1.142,0.364,1.647,0.665c0.017,0.95-0.332,1.868-0.459,2.803c0.274,0.089,0.546,0.171,0.82,0.251
		c0.397,0.114,0.799,0.218,1.201,0.311c0.307,0.072,0.614,0.139,0.925,0.198c0.316-0.871,0.601-1.758,0.901-2.644
		c0.619,0.048,1.22,0.142,1.837,0.222c0.017,0.965,0,1.931,0.032,2.897c0.998,0.078,2.01,0.111,3.024,0.111
		c0.126-0.935,0.252-1.854,0.349-2.788c0.601-0.046,1.218-0.079,1.836-0.111c0.223,0.918,0.412,1.837,0.617,2.755
		c1.015-0.079,2.013-0.253,2.994-0.443c-0.095-0.934-0.128-1.885-0.254-2.818c0.357-0.104,0.717-0.2,1.074-0.288
		c0.244-0.061,0.485-0.12,0.732-0.171c0.15,0.306,0.293,0.615,0.438,0.924c0.251,0.539,0.503,1.081,0.766,1.625
		c0.948-0.333,1.916-0.681,2.818-1.125c-0.286-0.886-0.57-1.789-0.84-2.692c0.554-0.285,1.094-0.554,1.647-0.839
		c0.571,0.759,1.124,1.535,1.709,2.28c0.855-0.506,1.712-1.044,2.519-1.631c-0.428-0.854-0.886-1.678-1.377-2.501
		c0.475-0.396,0.949-0.792,1.44-1.172c0.27,0.229,0.534,0.463,0.8,0.698c0.451,0.402,0.899,0.807,1.368,1.187
		c0.715-0.713,1.411-1.426,2.123-2.138c-0.617-0.729-1.251-1.441-1.869-2.17c0.381-0.492,0.76-0.95,1.174-1.425
		c0.822,0.475,1.646,0.934,2.484,1.377c0.587-0.823,1.125-1.663,1.647-2.518c-0.76-0.601-1.535-1.14-2.297-1.726
		c0.285-0.555,0.571-1.093,0.856-1.631c0.901,0.27,1.805,0.554,2.692,0.839c0.426-0.935,0.791-1.884,1.108-2.835
		c-0.823-0.459-1.806-0.68-2.534-1.299c0.063-0.585,0.269-1.124,0.443-1.678c0.934,0.111,1.884,0.158,2.834,0.237
		c0.174-0.981,0.349-1.962,0.46-2.961c-0.919-0.237-1.853-0.427-2.773-0.665C53.351,29.945,53.384,29.344,53.416,28.741z
		 M45.633,38.246c-2.162,3.713-5.489,6.667-9.482,8.346c-0.384,0.161-0.773,0.307-1.17,0.444c-2.032,0.706-4.214,1.095-6.484,1.095
		c-2.408,0-4.716-0.433-6.852-1.222c-0.407-0.151-0.806-0.318-1.201-0.494c-4.045-1.807-7.377-4.928-9.448-8.82
		c-1.476-2.77-2.313-5.928-2.313-9.279c0-10.925,8.889-19.814,19.814-19.814s19.814,8.889,19.814,19.814
		C48.311,31.933,47.331,35.324,45.633,38.246z"/>
	<circle class="st1" cx="28.457" cy="28.439" r="17.425"/>
</g>
<g>
	<path class="st2" d="M31.489,35.19c0.104,1.32,0.207,2.549,0.304,3.494c0.059,0.289,0.113,0.554,0.159,0.79
		C31.796,38.046,31.646,36.617,31.489,35.19z"/>
	<path class="st2" d="M25.47,14.935c-6.164,1.724-7.836,5.484-7.836,5.484h4.18C23.067,17.129,25.47,14.935,25.47,14.935z"/>
	<path class="st2" d="M21.343,21.724h-4.701C15.284,24.179,15.284,27,15.284,27h5.328C20.298,24.858,21.343,21.724,21.343,21.724z"
		/>
	<path class="st2" d="M20.559,28.305h-5.274c0.261,3.656,1.463,5.432,1.463,5.432h4.596C20.663,31.909,20.559,28.305,20.559,28.305z
		"/>
	<path class="st2" d="M17.634,34.938c1.902,3.782,7.836,5.485,7.836,5.485c-2.979-2.977-3.553-5.485-3.553-5.485H17.634z"/>
	<path class="st2" d="M23.171,20.419h4.439v-5.484C24.843,16.554,23.171,20.419,23.171,20.419z"/>
	<path class="st2" d="M21.814,27h5.797v-5.275h-4.806C22.805,21.724,21.917,23.866,21.814,27z"/>
	<path class="st2" d="M22.805,33.737h4.806v-5.432h-5.797C21.714,30.975,22.805,33.737,22.805,33.737z"/>
	<path class="st2" d="M27.61,40.423v-5.485h-4.439C23.171,34.938,24.843,38.96,27.61,40.423z"/>
	<path class="st2" d="M34.622,21.033c1.262-0.145,2.363-1.173,2.598-2.423c0.211-0.986-0.115-2.063-0.83-2.766
		c-0.632-0.649-1.563-0.98-2.465-0.895c-1.167,0.107-2.232,0.925-2.599,2.043c-0.373,1.029-0.126,2.255,0.62,3.055
		C32.602,20.792,33.642,21.178,34.622,21.033z"/>
	<path class="st2" d="M39.318,23.096c-1.106-0.205-2.202-0.445-3.307-0.656c-0.614,0.902-2.978,0.92-3.573,0
		c-1.112,0.217-2.219,0.438-3.324,0.667c-0.006,2.496,0,4.991-0.006,7.486c0.397,0.319,0.809,0.624,1.21,0.937l0.548-5.369
		c0,0,0.304,4.944,0.623,9.028c0.156,1.427,0.307,2.855,0.463,4.283c0.11,0.567,0.17,0.952,0.15,1.03
		c1.396,0.276,2.85,0.292,4.244,0.005c0.271-2.123,0.485-4.256,0.719-6.386c0.287-3.829,0.54-7.96,0.54-7.96l0.546,5.345
		c0.391-0.306,0.779-0.61,1.174-0.914C39.325,28.098,39.331,25.597,39.318,23.096z"/>
</g>
</svg>
