<?xml version="1.0" encoding="utf-8"?>
<!-- Generator: Adobe Illustrator 17.0.0, SVG Export Plug-In . SVG Version: 6.00 Build 0)  -->
<!DOCTYPE svg PUBLIC "-//W3C//DTD SVG 1.1//EN" "http://www.w3.org/Graphics/SVG/1.1/DTD/svg11.dtd">
<svg version="1.1" id="Capa_1" xmlns="http://www.w3.org/2000/svg" xmlns:xlink="http://www.w3.org/1999/xlink" x="0px" y="0px"
	 width="247.638px" height="58.139px" viewBox="0 0 247.638 58.139" enable-background="new 0 0 247.638 58.139"
	 xml:space="preserve">
<polygon fill-rule="evenodd" clip-rule="evenodd" fill="#A8A7A7" points="233.61,58.139 247.638,40.353 237.212,20.183 
	233.61,20.185 "/>
<rect x="0" y="0" fill-rule="evenodd" clip-rule="evenodd" fill="#FFFFFF" width="247.638" height="40.354"/>
<rect x="2.071" y="1.738" fill-rule="evenodd" clip-rule="evenodd" fill="#E9AC82" width="243.495" height="36.875"/>
<g opacity="0.5">
	<g>
		<defs>
			<rect id="SVGID_13_" x="0" y="40.353" width="233.61" height="7.17"/>
		</defs>
		<clipPath id="SVGID_2_">
			<use xlink:href="#SVGID_13_"  overflow="visible"/>
		</clipPath>
		<polygon clip-path="url(#SVGID_2_)" fill="#2F6882" points="233.61,47.523 0,40.353 233.61,40.353 		"/>
	</g>
</g>
<g>
	<path fill="#FFFFFF" d="M46.328,27.308V14.423h2.602v12.885H46.328z"/>
	<path fill="#FFFFFF" d="M58.549,27.308h-2.47v-4.764c0-1.008-0.053-1.66-0.158-1.956s-0.276-0.526-0.514-0.69
		s-0.523-0.246-0.857-0.246c-0.428,0-0.812,0.117-1.151,0.352s-0.572,0.545-0.698,0.932s-0.189,1.102-0.189,2.145v4.228h-2.47
		v-9.334h2.294v1.371c0.814-1.055,1.84-1.582,3.076-1.582c0.545,0,1.043,0.098,1.494,0.294s0.793,0.447,1.024,0.751
		s0.393,0.65,0.483,1.037s0.136,0.94,0.136,1.661V27.308z"/>
	<path fill="#FFFFFF" d="M64.002,17.974v1.969h-1.688v3.762c0,0.762,0.017,1.206,0.049,1.332s0.105,0.23,0.22,0.312
		s0.253,0.123,0.417,0.123c0.229,0,0.56-0.079,0.993-0.237l0.211,1.916c-0.574,0.246-1.225,0.369-1.951,0.369
		c-0.445,0-0.847-0.075-1.204-0.224s-0.619-0.343-0.786-0.58s-0.283-0.558-0.348-0.962c-0.053-0.287-0.079-0.867-0.079-1.74v-4.069
		h-1.134v-1.969h1.134V16.12l2.479-1.441v3.296H64.002z"/>
	<path fill="#FFFFFF" d="M66.748,27.308h-2.47v-9.334h2.294v1.327c0.393-0.627,0.746-1.04,1.06-1.239s0.669-0.299,1.067-0.299
		c0.563,0,1.104,0.155,1.626,0.466l-0.765,2.153c-0.416-0.27-0.803-0.404-1.16-0.404c-0.346,0-0.639,0.095-0.879,0.286
		s-0.429,0.535-0.566,1.033s-0.207,1.541-0.207,3.129V27.308z"/>
	<path fill="#FFFFFF" d="M69.485,22.509c0-0.82,0.202-1.614,0.606-2.382s0.978-1.354,1.719-1.758s1.568-0.606,2.482-0.606
		c1.412,0,2.569,0.458,3.472,1.375s1.354,2.076,1.354,3.476c0,1.412-0.455,2.583-1.366,3.511s-2.059,1.393-3.441,1.393
		c-0.855,0-1.671-0.193-2.447-0.58s-1.367-0.954-1.771-1.701S69.485,23.582,69.485,22.509z M72.016,22.641
		c0,0.926,0.22,1.635,0.659,2.127s0.981,0.738,1.626,0.738s1.186-0.246,1.622-0.738s0.654-1.207,0.654-2.145
		c0-0.914-0.218-1.617-0.654-2.109s-0.978-0.738-1.622-0.738s-1.187,0.246-1.626,0.738S72.016,21.715,72.016,22.641z"/>
	<path fill="#FFFFFF" d="M88.28,27.308h-2.294v-1.371c-0.381,0.533-0.83,0.93-1.349,1.191s-1.042,0.391-1.569,0.391
		c-1.072,0-1.99-0.432-2.755-1.296s-1.147-2.07-1.147-3.617c0-1.582,0.372-2.785,1.116-3.608s1.685-1.235,2.821-1.235
		c1.043,0,1.945,0.434,2.707,1.301v-4.641h2.47V27.308z M81.688,22.439c0,0.996,0.138,1.717,0.413,2.162
		c0.398,0.645,0.955,0.967,1.67,0.967c0.568,0,1.052-0.242,1.45-0.725s0.598-1.206,0.598-2.167c0-1.072-0.193-1.844-0.58-2.316
		s-0.882-0.708-1.485-0.708c-0.586,0-1.076,0.233-1.472,0.699S81.688,21.513,81.688,22.439z"/>
	<path fill="#FFFFFF" d="M95.526,27.308v-1.397c-0.34,0.498-0.786,0.891-1.34,1.178s-1.139,0.431-1.754,0.431
		c-0.627,0-1.189-0.138-1.688-0.413s-0.858-0.662-1.081-1.16s-0.334-1.187-0.334-2.065v-5.906h2.47v4.289
		c0,1.313,0.046,2.117,0.137,2.413s0.256,0.53,0.496,0.703s0.545,0.259,0.914,0.259c0.422,0,0.8-0.116,1.134-0.347
		s0.563-0.519,0.686-0.861s0.185-1.182,0.185-2.518v-3.938h2.47v9.334H95.526z"/>
	<path fill="#FFFFFF" d="M107.184,20.734l-2.435,0.439c-0.082-0.486-0.268-0.853-0.558-1.099s-0.667-0.369-1.13-0.369
		c-0.615,0-1.105,0.212-1.472,0.637s-0.55,1.135-0.55,2.131c0,1.107,0.187,1.89,0.559,2.347s0.871,0.686,1.498,0.686
		c0.469,0,0.853-0.133,1.151-0.4s0.51-0.725,0.633-1.375l2.426,0.413c-0.252,1.113-0.735,1.954-1.45,2.522s-1.673,0.853-2.874,0.853
		c-1.365,0-2.453-0.431-3.265-1.292s-1.218-2.054-1.218-3.577c0-1.541,0.407-2.741,1.222-3.599s1.916-1.288,3.305-1.288
		c1.137,0,2.041,0.245,2.712,0.734S106.891,19.732,107.184,20.734z"/>
	<path fill="#FFFFFF" d="M115.864,20.734l-2.435,0.439c-0.082-0.486-0.269-0.853-0.559-1.099s-0.666-0.369-1.129-0.369
		c-0.615,0-1.106,0.212-1.473,0.637s-0.549,1.135-0.549,2.131c0,1.107,0.186,1.89,0.558,2.347s0.872,0.686,1.499,0.686
		c0.469,0,0.853-0.133,1.151-0.4s0.51-0.725,0.633-1.375l2.426,0.413c-0.252,1.113-0.735,1.954-1.45,2.522s-1.673,0.853-2.874,0.853
		c-1.365,0-2.454-0.431-3.266-1.292s-1.217-2.054-1.217-3.577c0-1.541,0.407-2.741,1.222-3.599s1.916-1.288,3.305-1.288
		c1.137,0,2.04,0.245,2.711,0.734S115.571,19.732,115.864,20.734z"/>
	<path fill="#FFFFFF" d="M116.404,16.709v-2.285h2.47v2.285H116.404z M116.404,27.308v-9.334h2.47v9.334H116.404z"/>
	<path fill="#FFFFFF" d="M119.502,22.509c0-0.82,0.202-1.614,0.606-2.382s0.977-1.354,1.718-1.758s1.569-0.606,2.483-0.606
		c1.412,0,2.569,0.458,3.472,1.375s1.354,2.076,1.354,3.476c0,1.412-0.456,2.583-1.367,3.511s-2.058,1.393-3.44,1.393
		c-0.855,0-1.672-0.193-2.448-0.58s-1.366-0.954-1.771-1.701S119.502,23.582,119.502,22.509z M122.033,22.641
		c0,0.926,0.22,1.635,0.659,2.127s0.981,0.738,1.626,0.738s1.185-0.246,1.621-0.738s0.655-1.207,0.655-2.145
		c0-0.914-0.219-1.617-0.655-2.109s-0.977-0.738-1.621-0.738s-1.187,0.246-1.626,0.738S122.033,21.715,122.033,22.641z
		 M123.07,16.832l1.213-2.628h2.769l-2.417,2.628H123.07z"/>
	<path fill="#FFFFFF" d="M138.226,27.308h-2.47v-4.764c0-1.008-0.053-1.66-0.158-1.956s-0.277-0.526-0.515-0.69
		s-0.522-0.246-0.856-0.246c-0.428,0-0.812,0.117-1.151,0.352s-0.573,0.545-0.699,0.932s-0.188,1.102-0.188,2.145v4.228h-2.47
		v-9.334h2.294v1.371c0.814-1.055,1.84-1.582,3.076-1.582c0.545,0,1.043,0.098,1.494,0.294s0.792,0.447,1.023,0.751
		s0.393,0.65,0.483,1.037s0.137,0.94,0.137,1.661V27.308z"/>
</g>
<g>
	<path fill-rule="evenodd" clip-rule="evenodd" fill="#FFFFFF" stroke="#000000" stroke-width="0.5" stroke-miterlimit="10" d="
		M23.586,11.281L23.586,11.281c-4.636,0-8.34,3.523-8.34,7.971c0,2.785,1.478,5.186,3.334,6.67c0.551,0.383,1.111,0.752,1.66,1.123
		h-0.371V32.6h1.674c0.19,0.744,1.109,1.305,2.043,1.305c0.742,0,1.661-0.561,1.852-1.305h1.66v-5.555h-0.549
		c0.743-0.371,1.115-0.74,1.674-1.123c2.033-1.484,3.334-3.885,3.334-6.67C31.557,14.805,27.84,11.281,23.586,11.281L23.586,11.281z
		"/>
	
		<polygon fill-rule="evenodd" clip-rule="evenodd" fill="#FFFFFF" stroke="#000000" stroke-width="0.5" stroke-miterlimit="10" points="
		34.331,11.648 34.331,11.648 30.817,13.693 31.368,14.615 34.891,12.582 	"/>
	
		<polygon fill-rule="evenodd" clip-rule="evenodd" fill="#FFFFFF" stroke="#000000" stroke-width="0.5" stroke-miterlimit="10" points="
		29.514,7.203 29.514,7.203 27.469,10.717 28.223,11.09 30.256,7.756 	"/>
	
		<polygon fill-rule="evenodd" clip-rule="evenodd" fill="#FFFFFF" stroke="#000000" stroke-width="0.5" stroke-miterlimit="10" points="
		10.606,19.072 10.606,19.072 14.682,19.072 14.682,18.139 10.606,18.139 	"/>
	
		<polygon fill-rule="evenodd" clip-rule="evenodd" fill="#FFFFFF" stroke="#000000" stroke-width="0.5" stroke-miterlimit="10" points="
		11.896,12.582 11.896,12.582 15.614,14.615 15.984,13.693 12.639,11.648 	"/>
	
		<polygon fill-rule="evenodd" clip-rule="evenodd" fill="#FFFFFF" stroke="#000000" stroke-width="0.5" stroke-miterlimit="10" points="
		16.725,7.756 16.725,7.756 18.58,11.09 19.498,10.717 17.468,7.203 	"/>
	
		<polygon fill-rule="evenodd" clip-rule="evenodd" fill="#FFFFFF" stroke="#000000" stroke-width="0.5" stroke-miterlimit="10" points="
		22.844,5.721 22.844,5.721 22.844,9.603 23.959,9.603 23.959,5.721 	"/>
	<path fill-rule="evenodd" clip-rule="evenodd" fill="#FFFFFF" stroke="#000000" stroke-width="0.5" stroke-miterlimit="10" d="
		M23.586,22.775L23.586,22.775c-0.742,0-1.301,0.551-1.301,1.111c0,0.551,0.559,1.113,1.301,1.113c0.549,0,0.921-0.563,0.921-1.113
		C24.507,23.326,24.135,22.775,23.586,22.775L23.586,22.775z"/>
	<path fill-rule="evenodd" clip-rule="evenodd" fill="#FFFFFF" stroke="#000000" stroke-width="0.5" stroke-miterlimit="10" d="
		M23.586,14.615L23.586,14.615c-0.934,0-1.48,1.674-1.48,3.895s0.547,3.899,1.48,3.899c0.742,0,1.291-1.678,1.291-3.899
		S24.328,14.615,23.586,14.615L23.586,14.615z"/>
	
		<polygon fill-rule="evenodd" clip-rule="evenodd" fill="#FFFFFF" stroke="#000000" stroke-width="0.5" stroke-miterlimit="10" points="
		36.374,18.139 36.374,18.139 32.299,18.139 32.299,19.072 36.374,19.072 	"/>
	
		<polygon fill-rule="evenodd" clip-rule="evenodd" fill="#FFFFFF" stroke="#000000" stroke-width="0.5" stroke-miterlimit="10" points="
		20.608,28.156 20.608,28.156 20.608,29.266 26.357,29.266 26.357,28.156 	"/>
	
		<polygon fill-rule="evenodd" clip-rule="evenodd" fill="#FFFFFF" stroke="#000000" stroke-width="0.5" stroke-miterlimit="10" points="
		20.608,30.185 20.608,30.185 20.608,31.297 26.357,31.297 26.357,30.185 	"/>
</g>
</svg>
