<!-- Generator: Adobe Illustrator 17.0.0, SVG Export Plug-In  -->
<svg version="1.1"
	 xmlns="http://www.w3.org/2000/svg" xmlns:xlink="http://www.w3.org/1999/xlink" xmlns:a="http://ns.adobe.com/AdobeSVGViewerExtensions/3.0/"
	 x="0px" y="0px" width="82.693px" height="9.848px" viewBox="0 0 82.693 9.848" enable-background="new 0 0 82.693 9.848"
	 xml:space="preserve">
<defs>
</defs>
<path fill="#6B4429" d="M31.613,4.403c-0.367-4.362-16.617-6.079-26.941-2.38C-5.006,5.49,2.558,6.246,7.616,4.316
	C19.856,1.797,31.844,7.152,31.613,4.403z"/>
<path fill="#6B4429" d="M45.303,6.109c0.335-4.404,19.514-4.646,31.806,0.075c11.522,4.425,2.595,4.494-3.429,2.06
	C59.147,4.547,45.091,8.885,45.303,6.109z"/>
</svg>