<!-- Generator: Adobe Illustrator 17.0.0, SVG Export Plug-In  -->
<svg version="1.1"
	 xmlns="http://www.w3.org/2000/svg" xmlns:xlink="http://www.w3.org/1999/xlink" xmlns:a="http://ns.adobe.com/AdobeSVGViewerExtensions/3.0/"
	 x="0px" y="0px" width="84.721px" height="25.166px" viewBox="0 0 84.721 25.166" enable-background="new 0 0 84.721 25.166"
	 xml:space="preserve">
<defs>
</defs>
<g>
	<path fill="#452109" d="M84.657,18.243c0,0,1.489-12.234-9.994-13.109S52.997,2.559,51.04,14.876
		C50.114,18.629,71.126,22.436,84.657,18.243z"/>
	<path fill="#FFFFFF" d="M84.348,20.862c0,0,0.343-11.063-11.141-11.938c-11.483-0.875-21.771,0.322-22.664,7.941
		C49.616,20.617,70.817,25.055,84.348,20.862z"/>
	<g>
		<defs>
			<path id="SVGID_1_" d="M84.348,20.862c0,0,0.343-11.063-11.141-11.938c-11.483-0.875-21.771,0.322-22.664,7.941
				C49.616,20.617,70.817,25.055,84.348,20.862z"/>
		</defs>
		<clipPath id="SVGID_2_">
			<use xlink:href="#SVGID_1_"  overflow="visible"/>
		</clipPath>
		<circle clip-path="url(#SVGID_2_)" fill="#A85715" cx="66.753" cy="15.927" r="9.238"/>
		<circle clip-path="url(#SVGID_2_)" fill="#3D1800" cx="66.753" cy="15.927" r="4.68"/>
		<circle clip-path="url(#SVGID_2_)" fill="#FFFFFF" cx="61.284" cy="14.694" r="2.383"/>
	</g>
	<path fill="#452109" d="M0.143,9.931c0,0,0.631-10.909,10.788-9.86s19.31,1.171,19.074,12.227
		C30.221,15.718,11.287,15.725,0.143,9.931z"/>
	<path fill="#FFFFFF" d="M0,12.265c0,0,1.447-9.707,11.604-8.658s18.944,3.716,18.521,10.505C30.341,17.532,11.144,18.059,0,12.265z
		"/>
	<g>
		<defs>
			<path id="SVGID_3_" d="M0,12.265c0,0,1.447-9.707,11.604-8.658s18.944,3.716,18.521,10.505C30.341,17.532,11.144,18.059,0,12.265
				z"/>
		</defs>
		<clipPath id="SVGID_4_">
			<use xlink:href="#SVGID_3_"  overflow="visible"/>
		</clipPath>
		<circle clip-path="url(#SVGID_4_)" fill="#A85715" cx="16.13" cy="10.736" r="8.191"/>
		<circle clip-path="url(#SVGID_4_)" fill="#3D1800" cx="16.13" cy="10.736" r="4.24"/>
		<circle clip-path="url(#SVGID_4_)" fill="#FFFFFF" cx="10.879" cy="7.117" r="2.113"/>
	</g>
</g>
</svg>