<?xml version="1.0" encoding="utf-8"?>
<!-- Generator: Adobe Illustrator 17.0.0, SVG Export Plug-In . SVG Version: 6.00 Build 0)  -->
<!DOCTYPE svg PUBLIC "-//W3C//DTD SVG 1.1//EN" "http://www.w3.org/Graphics/SVG/1.1/DTD/svg11.dtd">
<svg version="1.1" id="Capa_1" xmlns="http://www.w3.org/2000/svg" xmlns:xlink="http://www.w3.org/1999/xlink" x="0px" y="0px"
	 width="127.58px" height="31.035px" viewBox="0 0 127.58 31.035" enable-background="new 0 0 127.58 31.035" xml:space="preserve">
<rect x="1" y="1" fill="#FFFFFF" stroke="#000000" stroke-width="2" stroke-linejoin="round" stroke-miterlimit="10" width="125.58" height="29.035"/>
<g>
	<path fill="#221E1F" d="M31.505,12.992h3.963c0.893,0,1.574,0.068,2.043,0.205c0.63,0.186,1.169,0.516,1.619,0.989
		c0.448,0.474,0.791,1.053,1.025,1.739c0.234,0.686,0.352,1.532,0.352,2.538c0,0.884-0.11,1.646-0.33,2.285
		c-0.269,0.781-0.652,1.413-1.15,1.896c-0.376,0.366-0.884,0.652-1.523,0.857c-0.479,0.151-1.118,0.227-1.918,0.227h-4.08V12.992z
		 M33.673,14.808v7.112h1.619c0.604,0,1.042-0.034,1.311-0.104c0.352-0.088,0.644-0.236,0.875-0.446
		c0.232-0.21,0.422-0.556,0.568-1.036c0.146-0.481,0.219-1.137,0.219-1.967s-0.072-1.467-0.219-1.912
		c-0.146-0.443-0.352-0.791-0.615-1.039c-0.264-0.25-0.599-0.418-1.004-0.506c-0.303-0.068-0.896-0.103-1.779-0.103H33.673z"/>
	<path fill="#221E1F" d="M43.688,23.729V12.992h2.168v10.737H43.688z"/>
	<path fill="#221E1F" d="M48.783,20.235l2.109-0.205c0.127,0.709,0.385,1.229,0.772,1.561c0.389,0.332,0.912,0.498,1.571,0.498
		c0.698,0,1.225-0.147,1.578-0.443c0.354-0.295,0.531-0.641,0.531-1.036c0-0.254-0.074-0.47-0.224-0.648
		c-0.148-0.178-0.409-0.333-0.779-0.465c-0.255-0.088-0.833-0.244-1.736-0.469c-1.162-0.288-1.978-0.642-2.446-1.062
		c-0.659-0.591-0.989-1.312-0.989-2.161c0-0.547,0.155-1.059,0.466-1.534c0.31-0.477,0.757-0.839,1.34-1.088
		c0.584-0.249,1.288-0.373,2.113-0.373c1.348,0,2.362,0.295,3.043,0.886c0.682,0.591,1.039,1.38,1.073,2.366l-2.168,0.095
		c-0.093-0.552-0.292-0.948-0.597-1.19c-0.306-0.241-0.764-0.362-1.374-0.362c-0.629,0-1.123,0.13-1.479,0.388
		c-0.23,0.167-0.345,0.389-0.345,0.667c0,0.254,0.107,0.472,0.322,0.651c0.273,0.23,0.938,0.469,1.992,0.719
		c1.055,0.248,1.835,0.506,2.34,0.772c0.506,0.266,0.901,0.63,1.187,1.091c0.286,0.462,0.429,1.032,0.429,1.711
		c0,0.615-0.171,1.191-0.513,1.729s-0.825,0.936-1.45,1.197c-0.625,0.261-1.404,0.392-2.337,0.392c-1.357,0-2.399-0.313-3.127-0.941
		C49.359,22.351,48.925,21.436,48.783,20.235z"/>
	<path fill="#221E1F" d="M60.748,23.729V12.992h7.961v1.816h-5.793v2.38h5.391v1.81h-5.391v2.923h5.998v1.809H60.748z"/>
	<path fill="#221E1F" d="M72.184,23.729V12.992h2.109l4.395,7.171v-7.171h2.014v10.737h-2.175l-4.329-7.002v7.002H72.184z
		 M74.879,12.399h-0.938c-0.005-0.112-0.008-0.2-0.008-0.264c0-0.514,0.125-0.907,0.374-1.184c0.249-0.275,0.568-0.414,0.96-0.414
		c0.17,0,0.329,0.019,0.476,0.056c0.146,0.036,0.414,0.142,0.802,0.314c0.389,0.174,0.692,0.261,0.912,0.261
		c0.156,0,0.287-0.049,0.392-0.146c0.105-0.098,0.173-0.262,0.202-0.491h0.951c-0.005,0.659-0.128,1.131-0.369,1.413
		c-0.242,0.284-0.553,0.426-0.934,0.426c-0.167,0-0.33-0.018-0.491-0.052c-0.112-0.029-0.394-0.129-0.843-0.3
		s-0.775-0.257-0.98-0.257c-0.157,0-0.279,0.048-0.367,0.143C74.93,12,74.884,12.165,74.879,12.399z"/>
	<path fill="#221E1F" d="M83.966,18.426c0-1.094,0.163-2.012,0.49-2.754c0.244-0.547,0.577-1.037,1-1.473
		c0.422-0.434,0.885-0.756,1.388-0.967c0.669-0.282,1.44-0.424,2.314-0.424c1.582,0,2.848,0.49,3.798,1.472
		c0.949,0.981,1.424,2.347,1.424,4.095c0,1.733-0.471,3.089-1.413,4.068c-0.942,0.979-2.202,1.469-3.779,1.469
		c-1.597,0-2.866-0.487-3.809-1.462C84.437,21.477,83.966,20.135,83.966,18.426z M86.199,18.353c0,1.216,0.28,2.138,0.843,2.765
		c0.561,0.628,1.273,0.941,2.139,0.941c0.863,0,1.573-0.312,2.127-0.934c0.555-0.623,0.832-1.557,0.832-2.802
		c0-1.23-0.271-2.148-0.81-2.754c-0.54-0.605-1.257-0.908-2.149-0.908c-0.895,0-1.614,0.307-2.161,0.919
		C86.473,16.194,86.199,17.118,86.199,18.353z"/>
</g>
</svg>
